{
  "type": "FeatureCollection",
  "features": [
    {
      "type": "Feature",
      "geometry": {
        "type": "LineString",
        "coordinates": [
          [-0.266507, 52.026006],
          [-0.266889, 52.025947]
        ]
      },
      "properties": {
        "elevation": 37.5,
        "slope": -3,
        "speed": 4,
        "distance": 27.4,
        "cumulativeDistance": 27.4
      }
    },
    {
      "type": "Feature",
      "geometry": {
        "type": "LineString",
        "coordinates": [
          [-0.266889, 52.025947],
          [-0.2671, 52.025748]
        ]
      },
      "properties": {
        "elevation": 37,
        "slope": 0,
        "speed": 4,
        "distance": 26.4,
        "cumulativeDistance": 53.9
      }
    },
    {
      "type": "Feature",
      "geometry": {
        "type": "LineString",
        "coordinates": [
          [-0.2671, 52.025748],
          [-0.267969, 52.024548]
        ]
      },
      "properties": {
        "elevation": 37,
        "slope": 0,
        "speed": 4,
        "distance": 146.1,
        "cumulativeDistance": 199.9
      }
    },
    {
      "type": "Feature",
      "geometry": {
        "type": "LineString",
        "coordinates": [
          [-0.267969, 52.024548],
          [-0.267652, 52.024218]
        ]
      },
      "properties": {
        "elevation": 37,
        "slope": 0,
        "speed": 4,
        "distance": 42.6,
        "cumulativeDistance": 242.6
      }
    },
    {
      "type": "Feature",
      "geometry": {
        "type": "LineString",
        "coordinates": [
          [-0.267652, 52.024218],
          [-0.267443, 52.022927]
        ]
      },
      "properties": {
        "elevation": 37.5,
        "slope": 0,
        "speed": 4,
        "distance": 144.3,
        "cumulativeDistance": 386.8
      }
    },
    {
      "type": "Feature",
      "geometry": {
        "type": "LineString",
        "coordinates": [
          [-0.267443, 52.022927],
          [-0.267451, 52.022827]
        ]
      },
      "properties": {
        "elevation": 38.5,
        "slope": 9,
        "speed": 4,
        "distance": 13.2,
        "cumulativeDistance": 400
      }
    },
    {
      "type": "Feature",
      "geometry": {
        "type": "LineString",
        "coordinates": [
          [-0.267451, 52.022827],
          [-0.267802, 52.022797]
        ]
      },
      "properties": {
        "elevation": 38.5,
        "slope": -3,
        "speed": 4,
        "distance": 24.7,
        "cumulativeDistance": 424.7
      }
    },
    {
      "type": "Feature",
      "geometry": {
        "type": "LineString",
        "coordinates": [
          [-0.267802, 52.022797],
          [-0.267794, 52.022408]
        ]
      },
      "properties": {
        "elevation": 38,
        "slope": 0,
        "speed": 4,
        "distance": 43.3,
        "cumulativeDistance": 468
      }
    },
    {
      "type": "Feature",
      "geometry": {
        "type": "LineString",
        "coordinates": [
          [-0.267794, 52.022408],
          [-0.268112, 52.021813]
        ]
      },
      "properties": {
        "elevation": 37.5,
        "slope": -2,
        "speed": 4,
        "distance": 70.2,
        "cumulativeDistance": 538.2
      }
    },
    {
      "type": "Feature",
      "geometry": {
        "type": "LineString",
        "coordinates": [
          [-0.268112, 52.021813],
          [-0.268393, 52.020948]
        ]
      },
      "properties": {
        "elevation": 37.5,
        "slope": 0,
        "speed": 4,
        "distance": 98.1,
        "cumulativeDistance": 636.2
      }
    },
    {
      "type": "Feature",
      "geometry": {
        "type": "LineString",
        "coordinates": [
          [-0.268393, 52.020948],
          [-0.268155, 52.020746]
        ]
      },
      "properties": {
        "elevation": 38.5,
        "slope": 2,
        "speed": 4,
        "distance": 28,
        "cumulativeDistance": 664.2
      }
    },
    {
      "type": "Feature",
      "geometry": {
        "type": "LineString",
        "coordinates": [
          [-0.268155, 52.020746],
          [-0.268214, 52.019918]
        ]
      },
      "properties": {
        "elevation": 39,
        "slope": 0,
        "speed": 4,
        "distance": 92.2,
        "cumulativeDistance": 756.4
      }
    },
    {
      "type": "Feature",
      "geometry": {
        "type": "LineString",
        "coordinates": [
          [-0.268214, 52.019918],
          [-0.267845, 52.019698]
        ]
      },
      "properties": {
        "elevation": 39,
        "slope": 0,
        "speed": 4,
        "distance": 35.2,
        "cumulativeDistance": 791.5
      }
    },
    {
      "type": "Feature",
      "geometry": {
        "type": "LineString",
        "coordinates": [
          [-0.267845, 52.019698],
          [-0.268162, 52.016518]
        ]
      },
      "properties": {
        "elevation": 38.5,
        "slope": -1,
        "speed": 4,
        "distance": 355,
        "cumulativeDistance": 1146.5
      }
    },
    {
      "type": "Feature",
      "geometry": {
        "type": "LineString",
        "coordinates": [
          [-0.268162, 52.016518],
          [-0.268518, 52.016526]
        ]
      },
      "properties": {
        "elevation": 38.5,
        "slope": 2,
        "speed": 4,
        "distance": 24.6,
        "cumulativeDistance": 1171.1
      }
    },
    {
      "type": "Feature",
      "geometry": {
        "type": "LineString",
        "coordinates": [
          [-0.268518, 52.016526],
          [-0.268785, 52.016636]
        ]
      },
      "properties": {
        "elevation": 39,
        "slope": 0,
        "speed": 4,
        "distance": 22,
        "cumulativeDistance": 1193
      }
    },
    {
      "type": "Feature",
      "geometry": {
        "type": "LineString",
        "coordinates": [
          [-0.268785, 52.016636],
          [-0.269269, 52.016518]
        ]
      },
      "properties": {
        "elevation": 39,
        "slope": 0,
        "speed": 4,
        "distance": 35.6,
        "cumulativeDistance": 1228.7
      }
    },
    {
      "type": "Feature",
      "geometry": {
        "type": "LineString",
        "coordinates": [
          [-0.269269, 52.016518],
          [-0.269222, 52.016093]
        ]
      },
      "properties": {
        "elevation": 39,
        "slope": 0,
        "speed": 4,
        "distance": 47.4,
        "cumulativeDistance": 1276
      }
    },
    {
      "type": "Feature",
      "geometry": {
        "type": "LineString",
        "coordinates": [
          [-0.269222, 52.016093],
          [-0.269767, 52.016018]
        ]
      },
      "properties": {
        "elevation": 38,
        "slope": -4,
        "speed": 4,
        "distance": 39.5,
        "cumulativeDistance": 1315.5
      }
    },
    {
      "type": "Feature",
      "geometry": {
        "type": "LineString",
        "coordinates": [
          [-0.269767, 52.016018],
          [-0.269655, 52.015676]
        ]
      },
      "properties": {
        "elevation": 37,
        "slope": 0,
        "speed": 4,
        "distance": 38.8,
        "cumulativeDistance": 1354.3
      }
    },
    {
      "type": "Feature",
      "geometry": {
        "type": "LineString",
        "coordinates": [
          [-0.269655, 52.015676],
          [-0.270426, 52.015457]
        ]
      },
      "properties": {
        "elevation": 36.5,
        "slope": -2,
        "speed": 4,
        "distance": 58.6,
        "cumulativeDistance": 1412.9
      }
    },
    {
      "type": "Feature",
      "geometry": {
        "type": "LineString",
        "coordinates": [
          [-0.270426, 52.015457],
          [-0.270425, 52.015127]
        ]
      },
      "properties": {
        "elevation": 37.5,
        "slope": 8,
        "speed": 4,
        "distance": 41.9,
        "cumulativeDistance": 1454.7
      }
    },
    {
      "type": "Feature",
      "geometry": {
        "type": "LineString",
        "coordinates": [
          [-0.270425, 52.015127],
          [-0.270069, 52.015006]
        ]
      },
      "properties": {
        "elevation": 39,
        "slope": 0,
        "speed": 4,
        "distance": 27.8,
        "cumulativeDistance": 1482.6
      }
    },
    {
      "type": "Feature",
      "geometry": {
        "type": "LineString",
        "coordinates": [
          [-0.270069, 52.015006],
          [-0.269802, 52.014428]
        ]
      },
      "properties": {
        "elevation": 38.5,
        "slope": -2,
        "speed": 4,
        "distance": 67.3,
        "cumulativeDistance": 1549.9
      }
    },
    {
      "type": "Feature",
      "geometry": {
        "type": "LineString",
        "coordinates": [
          [-0.269802, 52.014428],
          [-0.269763, 52.013908]
        ]
      },
      "properties": {
        "elevation": 38.5,
        "slope": 1,
        "speed": 4,
        "distance": 58,
        "cumulativeDistance": 1607.9
      }
    },
    {
      "type": "Feature",
      "geometry": {
        "type": "LineString",
        "coordinates": [
          [-0.269763, 52.013908],
          [-0.269862, 52.013503]
        ]
      },
      "properties": {
        "elevation": 38.5,
        "slope": -3,
        "speed": 4,
        "distance": 46.4,
        "cumulativeDistance": 1654.3
      }
    },
    {
      "type": "Feature",
      "geometry": {
        "type": "LineString",
        "coordinates": [
          [-0.269862, 52.013503],
          [-0.270727, 52.012956]
        ]
      },
      "properties": {
        "elevation": 38,
        "slope": 0,
        "speed": 4,
        "distance": 84.9,
        "cumulativeDistance": 1739.1
      }
    },
    {
      "type": "Feature",
      "geometry": {
        "type": "LineString",
        "coordinates": [
          [-0.270727, 52.012956],
          [-0.272086, 52.012797]
        ]
      },
      "properties": {
        "elevation": 39.5,
        "slope": 1,
        "speed": 4,
        "distance": 94.9,
        "cumulativeDistance": 1834
      }
    },
    {
      "type": "Feature",
      "geometry": {
        "type": "LineString",
        "coordinates": [
          [-0.272086, 52.012797],
          [-0.272245, 52.012568]
        ]
      },
      "properties": {
        "elevation": 41,
        "slope": 0,
        "speed": 4,
        "distance": 27.7,
        "cumulativeDistance": 1861.7
      }
    },
    {
      "type": "Feature",
      "geometry": {
        "type": "LineString",
        "coordinates": [
          [-0.272245, 52.012568],
          [-0.272826, 52.012356]
        ]
      },
      "properties": {
        "elevation": 41.5,
        "slope": 1,
        "speed": 4,
        "distance": 46.3,
        "cumulativeDistance": 1908
      }
    },
    {
      "type": "Feature",
      "geometry": {
        "type": "LineString",
        "coordinates": [
          [-0.272826, 52.012356],
          [-0.273182, 52.012253]
        ]
      },
      "properties": {
        "elevation": 42.5,
        "slope": 2,
        "speed": 4,
        "distance": 27.1,
        "cumulativeDistance": 1935.2
      }
    },
    {
      "type": "Feature",
      "geometry": {
        "type": "LineString",
        "coordinates": [
          [-0.273182, 52.012253],
          [-0.276765, 52.011836]
        ]
      },
      "properties": {
        "elevation": 44.5,
        "slope": 0,
        "speed": 4,
        "distance": 249.6,
        "cumulativeDistance": 2184.7
      }
    },
    {
      "type": "Feature",
      "geometry": {
        "type": "LineString",
        "coordinates": [
          [-0.276765, 52.011836],
          [-0.279878, 52.011507]
        ]
      },
      "properties": {
        "elevation": 47.5,
        "slope": 0,
        "speed": 4,
        "distance": 216.2,
        "cumulativeDistance": 2400.9
      }
    },
    {
      "type": "Feature",
      "geometry": {
        "type": "LineString",
        "coordinates": [
          [-0.279878, 52.011507],
          [-0.284538, 52.011046]
        ]
      },
      "properties": {
        "elevation": 49.5,
        "slope": 0,
        "speed": 4,
        "distance": 323,
        "cumulativeDistance": 2723.9
      }
    },
    {
      "type": "Feature",
      "geometry": {
        "type": "LineString",
        "coordinates": [
          [-0.284538, 52.011046],
          [-0.288432, 52.010698]
        ]
      },
      "properties": {
        "elevation": 48.5,
        "slope": -1,
        "speed": 4,
        "distance": 269.8,
        "cumulativeDistance": 2993.8
      }
    },
    {
      "type": "Feature",
      "geometry": {
        "type": "LineString",
        "coordinates": [
          [-0.288432, 52.010698],
          [-0.288479, 52.010596]
        ]
      },
      "properties": {
        "elevation": 47,
        "slope": 0,
        "speed": 4,
        "distance": 11.8,
        "cumulativeDistance": 3005.6
      }
    },
    {
      "type": "Feature",
      "geometry": {
        "type": "LineString",
        "coordinates": [
          [-0.288479, 52.010596],
          [-0.292237, 52.010208]
        ]
      },
      "properties": {
        "elevation": 47.5,
        "slope": 0,
        "speed": 4,
        "distance": 260.8,
        "cumulativeDistance": 3266.4
      }
    },
    {
      "type": "Feature",
      "geometry": {
        "type": "LineString",
        "coordinates": [
          [-0.292237, 52.010208],
          [-0.295892, 52.009873]
        ]
      },
      "properties": {
        "elevation": 48,
        "slope": 0,
        "speed": 4,
        "distance": 252.9,
        "cumulativeDistance": 3519.3
      }
    },
    {
      "type": "Feature",
      "geometry": {
        "type": "LineString",
        "coordinates": [
          [-0.295892, 52.009873],
          [-0.295947, 52.009567]
        ]
      },
      "properties": {
        "elevation": 48,
        "slope": 0,
        "speed": 4,
        "distance": 34.2,
        "cumulativeDistance": 3553.5
      }
    },
    {
      "type": "Feature",
      "geometry": {
        "type": "LineString",
        "coordinates": [
          [-0.295947, 52.009567],
          [-0.300145, 52.009158]
        ]
      },
      "properties": {
        "elevation": 48,
        "slope": 0,
        "speed": 4,
        "distance": 290.9,
        "cumulativeDistance": 3844.4
      }
    },
    {
      "type": "Feature",
      "geometry": {
        "type": "LineString",
        "coordinates": [
          [-0.300145, 52.009158],
          [-0.304322, 52.007858]
        ]
      },
      "properties": {
        "elevation": 49.5,
        "slope": 0,
        "speed": 4,
        "distance": 320.4,
        "cumulativeDistance": 4164.8
      }
    },
    {
      "type": "Feature",
      "geometry": {
        "type": "LineString",
        "coordinates": [
          [-0.304322, 52.007858],
          [-0.30468, 52.007898]
        ]
      },
      "properties": {
        "elevation": 51,
        "slope": 0,
        "speed": 4,
        "distance": 24.9,
        "cumulativeDistance": 4189.7
      }
    },
    {
      "type": "Feature",
      "geometry": {
        "type": "LineString",
        "coordinates": [
          [-0.30468, 52.007898],
          [-0.305802, 52.008807]
        ]
      },
      "properties": {
        "elevation": 51.5,
        "slope": 0,
        "speed": 4,
        "distance": 126.9,
        "cumulativeDistance": 4316.6
      }
    },
    {
      "type": "Feature",
      "geometry": {
        "type": "LineString",
        "coordinates": [
          [-0.305802, 52.008807],
          [-0.307019, 52.009688]
        ]
      },
      "properties": {
        "elevation": 52,
        "slope": 0,
        "speed": 4,
        "distance": 128.6,
        "cumulativeDistance": 4445.2
      }
    },
    {
      "type": "Feature",
      "geometry": {
        "type": "LineString",
        "coordinates": [
          [-0.307019, 52.009688],
          [-0.308042, 52.010233]
        ]
      },
      "properties": {
        "elevation": 52,
        "slope": 0,
        "speed": 4,
        "distance": 92.6,
        "cumulativeDistance": 4537.8
      }
    },
    {
      "type": "Feature",
      "geometry": {
        "type": "LineString",
        "coordinates": [
          [-0.308042, 52.010233],
          [-0.308875, 52.009386]
        ]
      },
      "properties": {
        "elevation": 53,
        "slope": 1,
        "speed": 4,
        "distance": 110.3,
        "cumulativeDistance": 4648.1
      }
    },
    {
      "type": "Feature",
      "geometry": {
        "type": "LineString",
        "coordinates": [
          [-0.308875, 52.009386],
          [-0.311766, 52.008797]
        ]
      },
      "properties": {
        "elevation": 55.5,
        "slope": 0,
        "speed": 4,
        "distance": 208.4,
        "cumulativeDistance": 4856.5
      }
    },
    {
      "type": "Feature",
      "geometry": {
        "type": "LineString",
        "coordinates": [
          [-0.311766, 52.008797],
          [-0.312146, 52.009777]
        ]
      },
      "properties": {
        "elevation": 55.5,
        "slope": -3,
        "speed": 4,
        "distance": 114.1,
        "cumulativeDistance": 4970.6
      }
    },
    {
      "type": "Feature",
      "geometry": {
        "type": "LineString",
        "coordinates": [
          [-0.312146, 52.009777],
          [-0.312772, 52.011113]
        ]
      },
      "properties": {
        "elevation": 53.5,
        "slope": -1,
        "speed": 4,
        "distance": 154.9,
        "cumulativeDistance": 5125.5
      }
    },
    {
      "type": "Feature",
      "geometry": {
        "type": "LineString",
        "coordinates": [
          [-0.312772, 52.011113],
          [-0.313802, 52.011028]
        ]
      },
      "properties": {
        "elevation": 53.5,
        "slope": 0,
        "speed": 4,
        "distance": 71.1,
        "cumulativeDistance": 5196.6
      }
    },
    {
      "type": "Feature",
      "geometry": {
        "type": "LineString",
        "coordinates": [
          [-0.313802, 52.011028],
          [-0.315683, 52.011067]
        ]
      },
      "properties": {
        "elevation": 55.5,
        "slope": 1,
        "speed": 4,
        "distance": 129.1,
        "cumulativeDistance": 5325.7
      }
    },
    {
      "type": "Feature",
      "geometry": {
        "type": "LineString",
        "coordinates": [
          [-0.315683, 52.011067],
          [-0.316961, 52.010987]
        ]
      },
      "properties": {
        "elevation": 57,
        "slope": 0,
        "speed": 4,
        "distance": 87.9,
        "cumulativeDistance": 5413.6
      }
    },
    {
      "type": "Feature",
      "geometry": {
        "type": "LineString",
        "coordinates": [
          [-0.316961, 52.010987],
          [-0.318402, 52.011357]
        ]
      },
      "properties": {
        "elevation": 56.5,
        "slope": -1,
        "speed": 4,
        "distance": 107.1,
        "cumulativeDistance": 5520.7
      }
    },
    {
      "type": "Feature",
      "geometry": {
        "type": "LineString",
        "coordinates": [
          [-0.318402, 52.011357],
          [-0.318944, 52.011358]
        ]
      },
      "properties": {
        "elevation": 56.5,
        "slope": 1,
        "speed": 4,
        "distance": 37.2,
        "cumulativeDistance": 5557.9
      }
    },
    {
      "type": "Feature",
      "geometry": {
        "type": "LineString",
        "coordinates": [
          [-0.318944, 52.011358],
          [-0.322043, 52.011218]
        ]
      },
      "properties": {
        "elevation": 58.5,
        "slope": 0,
        "speed": 4,
        "distance": 212.7,
        "cumulativeDistance": 5770.5
      }
    },
    {
      "type": "Feature",
      "geometry": {
        "type": "LineString",
        "coordinates": [
          [-0.322043, 52.011218],
          [-0.323112, 52.011323]
        ]
      },
      "properties": {
        "elevation": 61,
        "slope": 1,
        "speed": 4,
        "distance": 74.2,
        "cumulativeDistance": 5844.8
      }
    },
    {
      "type": "Feature",
      "geometry": {
        "type": "LineString",
        "coordinates": [
          [-0.323112, 52.011323],
          [-0.324912, 52.011888]
        ]
      },
      "properties": {
        "elevation": 64,
        "slope": 1,
        "speed": 4,
        "distance": 138.6,
        "cumulativeDistance": 5983.3
      }
    },
    {
      "type": "Feature",
      "geometry": {
        "type": "LineString",
        "coordinates": [
          [-0.324912, 52.011888],
          [-0.325959, 52.012646]
        ]
      },
      "properties": {
        "elevation": 65.5,
        "slope": -1,
        "speed": 4,
        "distance": 110.8,
        "cumulativeDistance": 6094.2
      }
    },
    {
      "type": "Feature",
      "geometry": {
        "type": "LineString",
        "coordinates": [
          [-0.325959, 52.012646],
          [-0.327763, 52.013248]
        ]
      },
      "properties": {
        "elevation": 64.5,
        "slope": -1,
        "speed": 4,
        "distance": 140.7,
        "cumulativeDistance": 6234.9
      }
    },
    {
      "type": "Feature",
      "geometry": {
        "type": "LineString",
        "coordinates": [
          [-0.327763, 52.013248],
          [-0.329629, 52.013826]
        ]
      },
      "properties": {
        "elevation": 65.5,
        "slope": 1,
        "speed": 4,
        "distance": 143.2,
        "cumulativeDistance": 6378.2
      }
    },
    {
      "type": "Feature",
      "geometry": {
        "type": "LineString",
        "coordinates": [
          [-0.329629, 52.013826],
          [-0.330032, 52.013888]
        ]
      },
      "properties": {
        "elevation": 67,
        "slope": 0,
        "speed": 4,
        "distance": 28.4,
        "cumulativeDistance": 6406.6
      }
    },
    {
      "type": "Feature",
      "geometry": {
        "type": "LineString",
        "coordinates": [
          [-0.330032, 52.013888],
          [-0.330996, 52.014058]
        ]
      },
      "properties": {
        "elevation": 68,
        "slope": 1,
        "speed": 4,
        "distance": 68.8,
        "cumulativeDistance": 6475.3
      }
    },
    {
      "type": "Feature",
      "geometry": {
        "type": "LineString",
        "coordinates": [
          [-0.330996, 52.014058],
          [-0.331479, 52.013206]
        ]
      },
      "properties": {
        "elevation": 69.5,
        "slope": 0,
        "speed": 4,
        "distance": 100.3,
        "cumulativeDistance": 6575.7
      }
    },
    {
      "type": "Feature",
      "geometry": {
        "type": "LineString",
        "coordinates": [
          [-0.331479, 52.013206],
          [-0.331838, 52.012286]
        ]
      },
      "properties": {
        "elevation": 71,
        "slope": 1,
        "speed": 4,
        "distance": 105.4,
        "cumulativeDistance": 6681.1
      }
    },
    {
      "type": "Feature",
      "geometry": {
        "type": "LineString",
        "coordinates": [
          [-0.331838, 52.012286],
          [-0.335292, 52.012613]
        ]
      },
      "properties": {
        "elevation": 73,
        "slope": 0,
        "speed": 4,
        "distance": 239.2,
        "cumulativeDistance": 6920.3
      }
    },
    {
      "type": "Feature",
      "geometry": {
        "type": "LineString",
        "coordinates": [
          [-0.335292, 52.012613],
          [-0.337887, 52.013608]
        ]
      },
      "properties": {
        "elevation": 74,
        "slope": 0,
        "speed": 4,
        "distance": 209.2,
        "cumulativeDistance": 7129.5
      }
    },
    {
      "type": "Feature",
      "geometry": {
        "type": "LineString",
        "coordinates": [
          [-0.337887, 52.013608],
          [-0.341177, 52.014698]
        ]
      },
      "properties": {
        "elevation": 72.5,
        "slope": -1,
        "speed": 4,
        "distance": 256.2,
        "cumulativeDistance": 7385.7
      }
    },
    {
      "type": "Feature",
      "geometry": {
        "type": "LineString",
        "coordinates": [
          [-0.341177, 52.014698],
          [-0.341617, 52.014718]
        ]
      },
      "properties": {
        "elevation": 71,
        "slope": 0,
        "speed": 4,
        "distance": 30.2,
        "cumulativeDistance": 7415.9
      }
    },
    {
      "type": "Feature",
      "geometry": {
        "type": "LineString",
        "coordinates": [
          [-0.341617, 52.014718],
          [-0.342556, 52.014624]
        ]
      },
      "properties": {
        "elevation": 71.5,
        "slope": 0,
        "speed": 4,
        "distance": 65.1,
        "cumulativeDistance": 7481
      }
    },
    {
      "type": "Feature",
      "geometry": {
        "type": "LineString",
        "coordinates": [
          [-0.342556, 52.014624],
          [-0.343407, 52.014778]
        ]
      },
      "properties": {
        "elevation": 72.5,
        "slope": 1,
        "speed": 4,
        "distance": 60.8,
        "cumulativeDistance": 7541.8
      }
    },
    {
      "type": "Feature",
      "geometry": {
        "type": "LineString",
        "coordinates": [
          [-0.343407, 52.014778],
          [-0.344065, 52.014126]
        ]
      },
      "properties": {
        "elevation": 73,
        "slope": 0,
        "speed": 4,
        "distance": 85.3,
        "cumulativeDistance": 7627.2
      }
    },
    {
      "type": "Feature",
      "geometry": {
        "type": "LineString",
        "coordinates": [
          [-0.344065, 52.014126],
          [-0.345106, 52.013547]
        ]
      },
      "properties": {
        "elevation": 73.5,
        "slope": 0,
        "speed": 4,
        "distance": 96,
        "cumulativeDistance": 7723.2
      }
    },
    {
      "type": "Feature",
      "geometry": {
        "type": "LineString",
        "coordinates": [
          [-0.345106, 52.013547],
          [-0.345385, 52.013307]
        ]
      },
      "properties": {
        "elevation": 74,
        "slope": 0,
        "speed": 4,
        "distance": 32.8,
        "cumulativeDistance": 7756
      }
    },
    {
      "type": "Feature",
      "geometry": {
        "type": "LineString",
        "coordinates": [
          [-0.345385, 52.013307],
          [-0.346013, 52.012717]
        ]
      },
      "properties": {
        "elevation": 75,
        "slope": 2,
        "speed": 4,
        "distance": 79.1,
        "cumulativeDistance": 7835.1
      }
    },
    {
      "type": "Feature",
      "geometry": {
        "type": "LineString",
        "coordinates": [
          [-0.346013, 52.012717],
          [-0.346678, 52.011977]
        ]
      },
      "properties": {
        "elevation": 77.5,
        "slope": 2,
        "speed": 4,
        "distance": 94.8,
        "cumulativeDistance": 7929.9
      }
    },
    {
      "type": "Feature",
      "geometry": {
        "type": "LineString",
        "coordinates": [
          [-0.346678, 52.011977],
          [-0.346731, 52.011877]
        ]
      },
      "properties": {
        "elevation": 79,
        "slope": 0,
        "speed": 4,
        "distance": 11.7,
        "cumulativeDistance": 7941.6
      }
    },
    {
      "type": "Feature",
      "geometry": {
        "type": "LineString",
        "coordinates": [
          [-0.346731, 52.011877],
          [-0.347277, 52.011636]
        ]
      },
      "properties": {
        "elevation": 80,
        "slope": 3,
        "speed": 4,
        "distance": 46.8,
        "cumulativeDistance": 7988.4
      }
    },
    {
      "type": "Feature",
      "geometry": {
        "type": "LineString",
        "coordinates": [
          [-0.347277, 52.011636],
          [-0.348316, 52.010547]
        ]
      },
      "properties": {
        "elevation": 82.5,
        "slope": 1,
        "speed": 4,
        "distance": 140.7,
        "cumulativeDistance": 8129.1
      }
    },
    {
      "type": "Feature",
      "geometry": {
        "type": "LineString",
        "coordinates": [
          [-0.348316, 52.010547],
          [-0.348725, 52.010738]
        ]
      },
      "properties": {
        "elevation": 84,
        "slope": 0,
        "speed": 4,
        "distance": 35.1,
        "cumulativeDistance": 8164.2
      }
    },
    {
      "type": "Feature",
      "geometry": {
        "type": "LineString",
        "coordinates": [
          [-0.348725, 52.010738],
          [-0.349286, 52.010596]
        ]
      },
      "properties": {
        "elevation": 84,
        "slope": 0,
        "speed": 4,
        "distance": 41.5,
        "cumulativeDistance": 8205.7
      }
    },
    {
      "type": "Feature",
      "geometry": {
        "type": "LineString",
        "coordinates": [
          [-0.349286, 52.010596],
          [-0.349866, 52.010284]
        ]
      },
      "properties": {
        "elevation": 84,
        "slope": 0,
        "speed": 4,
        "distance": 52.7,
        "cumulativeDistance": 8258.5
      }
    },
    {
      "type": "Feature",
      "geometry": {
        "type": "LineString",
        "coordinates": [
          [-0.349866, 52.010284],
          [-0.350709, 52.010077]
        ]
      },
      "properties": {
        "elevation": 84.5,
        "slope": 1,
        "speed": 4,
        "distance": 62.2,
        "cumulativeDistance": 8320.7
      }
    },
    {
      "type": "Feature",
      "geometry": {
        "type": "LineString",
        "coordinates": [
          [-0.350709, 52.010077],
          [-0.351682, 52.009768]
        ]
      },
      "properties": {
        "elevation": 85.5,
        "slope": 0,
        "speed": 4,
        "distance": 74.9,
        "cumulativeDistance": 8395.6
      }
    },
    {
      "type": "Feature",
      "geometry": {
        "type": "LineString",
        "coordinates": [
          [-0.351682, 52.009768],
          [-0.352991, 52.009197]
        ]
      },
      "properties": {
        "elevation": 85.5,
        "slope": -1,
        "speed": 4,
        "distance": 110,
        "cumulativeDistance": 8505.7
      }
    },
    {
      "type": "Feature",
      "geometry": {
        "type": "LineString",
        "coordinates": [
          [-0.352991, 52.009197],
          [-0.353286, 52.009044]
        ]
      },
      "properties": {
        "elevation": 84.5,
        "slope": -3,
        "speed": 4,
        "distance": 26.9,
        "cumulativeDistance": 8532.5
      }
    },
    {
      "type": "Feature",
      "geometry": {
        "type": "LineString",
        "coordinates": [
          [-0.353286, 52.009044],
          [-0.355065, 52.009088]
        ]
      },
      "properties": {
        "elevation": 84,
        "slope": 0,
        "speed": 4,
        "distance": 121.9,
        "cumulativeDistance": 8654.4
      }
    },
    {
      "type": "Feature",
      "geometry": {
        "type": "LineString",
        "coordinates": [
          [-0.355065, 52.009088],
          [-0.360625, 52.008347]
        ]
      },
      "properties": {
        "elevation": 81.5,
        "slope": -1,
        "speed": 4,
        "distance": 390.1,
        "cumulativeDistance": 9044.5
      }
    },
    {
      "type": "Feature",
      "geometry": {
        "type": "LineString",
        "coordinates": [
          [-0.360625, 52.008347],
          [-0.361242, 52.007993]
        ]
      },
      "properties": {
        "elevation": 78,
        "slope": -3,
        "speed": 4,
        "distance": 58.8,
        "cumulativeDistance": 9103.3
      }
    },
    {
      "type": "Feature",
      "geometry": {
        "type": "LineString",
        "coordinates": [
          [-0.361242, 52.007993],
          [-0.361847, 52.007456]
        ]
      },
      "properties": {
        "elevation": 76,
        "slope": -3,
        "speed": 4,
        "distance": 74,
        "cumulativeDistance": 9177.3
      }
    },
    {
      "type": "Feature",
      "geometry": {
        "type": "LineString",
        "coordinates": [
          [-0.361847, 52.007456],
          [-0.362319, 52.007227]
        ]
      },
      "properties": {
        "elevation": 74.5,
        "slope": -2,
        "speed": 4,
        "distance": 41.5,
        "cumulativeDistance": 9218.8
      }
    },
    {
      "type": "Feature",
      "geometry": {
        "type": "LineString",
        "coordinates": [
          [-0.362319, 52.007227],
          [-0.36334, 52.006768]
        ]
      },
      "properties": {
        "elevation": 71.5,
        "slope": -5,
        "speed": 4,
        "distance": 91,
        "cumulativeDistance": 9309.7
      }
    },
    {
      "type": "Feature",
      "geometry": {
        "type": "LineString",
        "coordinates": [
          [-0.36334, 52.006768],
          [-0.363139, 52.006248]
        ]
      },
      "properties": {
        "elevation": 69.5,
        "slope": 1,
        "speed": 4,
        "distance": 59.6,
        "cumulativeDistance": 9369.3
      }
    },
    {
      "type": "Feature",
      "geometry": {
        "type": "LineString",
        "coordinates": [
          [-0.363139, 52.006248],
          [-0.364262, 52.004818]
        ]
      },
      "properties": {
        "elevation": 67,
        "slope": -3,
        "speed": 4,
        "distance": 179.8,
        "cumulativeDistance": 9549.1
      }
    },
    {
      "type": "Feature",
      "geometry": {
        "type": "LineString",
        "coordinates": [
          [-0.364262, 52.004818],
          [-0.365713, 52.003287]
        ]
      },
      "properties": {
        "elevation": 59.5,
        "slope": -4,
        "speed": 4,
        "distance": 203.5,
        "cumulativeDistance": 9752.6
      }
    },
    {
      "type": "Feature",
      "geometry": {
        "type": "LineString",
        "coordinates": [
          [-0.365713, 52.003287],
          [-0.366071, 52.002687]
        ]
      },
      "properties": {
        "elevation": 54.5,
        "slope": -2,
        "speed": 4,
        "distance": 71.6,
        "cumulativeDistance": 9824.2
      }
    },
    {
      "type": "Feature",
      "geometry": {
        "type": "LineString",
        "coordinates": [
          [-0.366071, 52.002687],
          [-0.366532, 52.002037]
        ]
      },
      "properties": {
        "elevation": 52.5,
        "slope": -4,
        "speed": 4,
        "distance": 81.4,
        "cumulativeDistance": 9905.7
      }
    },
    {
      "type": "Feature",
      "geometry": {
        "type": "LineString",
        "coordinates": [
          [-0.366532, 52.002037],
          [-0.366764, 52.001298]
        ]
      },
      "properties": {
        "elevation": 50.5,
        "slope": -2,
        "speed": 4,
        "distance": 84.4,
        "cumulativeDistance": 9990
      }
    },
    {
      "type": "Feature",
      "geometry": {
        "type": "LineString",
        "coordinates": [
          [-0.366764, 52.001298],
          [-0.364512, 52.000213]
        ]
      },
      "properties": {
        "elevation": 50,
        "slope": 0,
        "speed": 4,
        "distance": 195.8,
        "cumulativeDistance": 10185.8
      }
    },
    {
      "type": "Feature",
      "geometry": {
        "type": "LineString",
        "coordinates": [
          [-0.364512, 52.000213],
          [-0.363793, 51.999338]
        ]
      },
      "properties": {
        "elevation": 51,
        "slope": 1,
        "speed": 4,
        "distance": 109.3,
        "cumulativeDistance": 10295
      }
    },
    {
      "type": "Feature",
      "geometry": {
        "type": "LineString",
        "coordinates": [
          [-0.363793, 51.999338],
          [-0.362815, 51.998316]
        ]
      },
      "properties": {
        "elevation": 54.5,
        "slope": 3,
        "speed": 4,
        "distance": 134.3,
        "cumulativeDistance": 10429.3
      }
    },
    {
      "type": "Feature",
      "geometry": {
        "type": "LineString",
        "coordinates": [
          [-0.362815, 51.998316],
          [-0.363524, 51.997688]
        ]
      },
      "properties": {
        "elevation": 57,
        "slope": 0,
        "speed": 4,
        "distance": 85,
        "cumulativeDistance": 10514.3
      }
    },
    {
      "type": "Feature",
      "geometry": {
        "type": "LineString",
        "coordinates": [
          [-0.363524, 51.997688],
          [-0.362765, 51.996468]
        ]
      },
      "properties": {
        "elevation": 58,
        "slope": 1,
        "speed": 4,
        "distance": 145.6,
        "cumulativeDistance": 10659.9
      }
    },
    {
      "type": "Feature",
      "geometry": {
        "type": "LineString",
        "coordinates": [
          [-0.362765, 51.996468],
          [-0.363132, 51.995068]
        ]
      },
      "properties": {
        "elevation": 58.5,
        "slope": -1,
        "speed": 4,
        "distance": 158,
        "cumulativeDistance": 10817.9
      }
    },
    {
      "type": "Feature",
      "geometry": {
        "type": "LineString",
        "coordinates": [
          [-0.363132, 51.995068],
          [-0.363378, 51.994806]
        ]
      },
      "properties": {
        "elevation": 57.5,
        "slope": -3,
        "speed": 4,
        "distance": 34.3,
        "cumulativeDistance": 10852.2
      }
    },
    {
      "type": "Feature",
      "geometry": {
        "type": "LineString",
        "coordinates": [
          [-0.363378, 51.994806],
          [-0.362915, 51.994356]
        ]
      },
      "properties": {
        "elevation": 57,
        "slope": 0,
        "speed": 4,
        "distance": 59.2,
        "cumulativeDistance": 10911.4
      }
    },
    {
      "type": "Feature",
      "geometry": {
        "type": "LineString",
        "coordinates": [
          [-0.362915, 51.994356],
          [-0.362039, 51.993218]
        ]
      },
      "properties": {
        "elevation": 56,
        "slope": -2,
        "speed": 4,
        "distance": 141.1,
        "cumulativeDistance": 11052.5
      }
    },
    {
      "type": "Feature",
      "geometry": {
        "type": "LineString",
        "coordinates": [
          [-0.362039, 51.993218],
          [-0.364392, 51.992433]
        ]
      },
      "properties": {
        "elevation": 59.5,
        "slope": 3,
        "speed": 4,
        "distance": 186.5,
        "cumulativeDistance": 11239.1
      }
    },
    {
      "type": "Feature",
      "geometry": {
        "type": "LineString",
        "coordinates": [
          [-0.364392, 51.992433],
          [-0.365017, 51.992028]
        ]
      },
      "properties": {
        "elevation": 64.5,
        "slope": 1,
        "speed": 4,
        "distance": 62.2,
        "cumulativeDistance": 11301.3
      }
    },
    {
      "type": "Feature",
      "geometry": {
        "type": "LineString",
        "coordinates": [
          [-0.365017, 51.992028],
          [-0.365375, 51.991966]
        ]
      },
      "properties": {
        "elevation": 63,
        "slope": -10,
        "speed": 4,
        "distance": 31.5,
        "cumulativeDistance": 11332.8
      }
    },
    {
      "type": "Feature",
      "geometry": {
        "type": "LineString",
        "coordinates": [
          [-0.365375, 51.991966],
          [-0.368026, 51.991477]
        ]
      },
      "properties": {
        "elevation": 55.5,
        "slope": -4,
        "speed": 4,
        "distance": 195.6,
        "cumulativeDistance": 11528.4
      }
    },
    {
      "type": "Feature",
      "geometry": {
        "type": "LineString",
        "coordinates": [
          [-0.368026, 51.991477],
          [-0.368675, 51.991377]
        ]
      },
      "properties": {
        "elevation": 50,
        "slope": 0,
        "speed": 4,
        "distance": 45.8,
        "cumulativeDistance": 11574.2
      }
    },
    {
      "type": "Feature",
      "geometry": {
        "type": "LineString",
        "coordinates": [
          [-0.368675, 51.991377],
          [-0.367389, 51.990016]
        ]
      },
      "properties": {
        "elevation": 50,
        "slope": 0,
        "speed": 4,
        "distance": 175.1,
        "cumulativeDistance": 11749.3
      }
    },
    {
      "type": "Feature",
      "geometry": {
        "type": "LineString",
        "coordinates": [
          [-0.367389, 51.990016],
          [-0.368112, 51.988538]
        ]
      },
      "properties": {
        "elevation": 50,
        "slope": 0,
        "speed": 4,
        "distance": 171.6,
        "cumulativeDistance": 11921
      }
    },
    {
      "type": "Feature",
      "geometry": {
        "type": "LineString",
        "coordinates": [
          [-0.368112, 51.988538],
          [-0.368683, 51.987248]
        ]
      },
      "properties": {
        "elevation": 50.5,
        "slope": 0,
        "speed": 4,
        "distance": 148.7,
        "cumulativeDistance": 12069.6
      }
    },
    {
      "type": "Feature",
      "geometry": {
        "type": "LineString",
        "coordinates": [
          [-0.368683, 51.987248],
          [-0.370562, 51.986403]
        ]
      },
      "properties": {
        "elevation": 51.5,
        "slope": 0,
        "speed": 4,
        "distance": 159.3,
        "cumulativeDistance": 12229
      }
    },
    {
      "type": "Feature",
      "geometry": {
        "type": "LineString",
        "coordinates": [
          [-0.370562, 51.986403],
          [-0.369177, 51.985586]
        ]
      },
      "properties": {
        "elevation": 51.5,
        "slope": -1,
        "speed": 4,
        "distance": 131.6,
        "cumulativeDistance": 12360.6
      }
    },
    {
      "type": "Feature",
      "geometry": {
        "type": "LineString",
        "coordinates": [
          [-0.369177, 51.985586],
          [-0.368046, 51.985377]
        ]
      },
      "properties": {
        "elevation": 51,
        "slope": 0,
        "speed": 4,
        "distance": 80.9,
        "cumulativeDistance": 12441.4
      }
    },
    {
      "type": "Feature",
      "geometry": {
        "type": "LineString",
        "coordinates": [
          [-0.368046, 51.985377],
          [-0.367395, 51.985118]
        ]
      },
      "properties": {
        "elevation": 51.5,
        "slope": 1,
        "speed": 4,
        "distance": 53.2,
        "cumulativeDistance": 12494.6
      }
    },
    {
      "type": "Feature",
      "geometry": {
        "type": "LineString",
        "coordinates": [
          [-0.367395, 51.985118],
          [-0.367326, 51.984006]
        ]
      },
      "properties": {
        "elevation": 51.5,
        "slope": -1,
        "speed": 4,
        "distance": 124,
        "cumulativeDistance": 12618.6
      }
    },
    {
      "type": "Feature",
      "geometry": {
        "type": "LineString",
        "coordinates": [
          [-0.367326, 51.984006],
          [-0.367592, 51.983183]
        ]
      },
      "properties": {
        "elevation": 51.5,
        "slope": 1,
        "speed": 4,
        "distance": 93.5,
        "cumulativeDistance": 12712.1
      }
    },
    {
      "type": "Feature",
      "geometry": {
        "type": "LineString",
        "coordinates": [
          [-0.367592, 51.983183],
          [-0.367715, 51.982276]
        ]
      },
      "properties": {
        "elevation": 52.5,
        "slope": 0,
        "speed": 4,
        "distance": 101.2,
        "cumulativeDistance": 12813.3
      }
    },
    {
      "type": "Feature",
      "geometry": {
        "type": "LineString",
        "coordinates": [
          [-0.367715, 51.982276],
          [-0.367718, 51.981717]
        ]
      },
      "properties": {
        "elevation": 53,
        "slope": 0,
        "speed": 4,
        "distance": 62.2,
        "cumulativeDistance": 12875.4
      }
    },
    {
      "type": "Feature",
      "geometry": {
        "type": "LineString",
        "coordinates": [
          [-0.367718, 51.981717],
          [-0.367878, 51.981436]
        ]
      },
      "properties": {
        "elevation": 53,
        "slope": 0,
        "speed": 4,
        "distance": 33.1,
        "cumulativeDistance": 12908.6
      }
    },
    {
      "type": "Feature",
      "geometry": {
        "type": "LineString",
        "coordinates": [
          [-0.367878, 51.981436],
          [-0.368982, 51.979458]
        ]
      },
      "properties": {
        "elevation": 53.5,
        "slope": 0,
        "speed": 4,
        "distance": 232.6,
        "cumulativeDistance": 13141.1
      }
    },
    {
      "type": "Feature",
      "geometry": {
        "type": "LineString",
        "coordinates": [
          [-0.368982, 51.979458],
          [-0.367639, 51.978786]
        ]
      },
      "properties": {
        "elevation": 54.5,
        "slope": 0,
        "speed": 4,
        "distance": 118.5,
        "cumulativeDistance": 13259.6
      }
    },
    {
      "type": "Feature",
      "geometry": {
        "type": "LineString",
        "coordinates": [
          [-0.367639, 51.978786],
          [-0.365987, 51.977638]
        ]
      },
      "properties": {
        "elevation": 55.5,
        "slope": 0,
        "speed": 4,
        "distance": 170.6,
        "cumulativeDistance": 13430.2
      }
    },
    {
      "type": "Feature",
      "geometry": {
        "type": "LineString",
        "coordinates": [
          [-0.365987, 51.977638],
          [-0.365642, 51.977283]
        ]
      },
      "properties": {
        "elevation": 56,
        "slope": 0,
        "speed": 4,
        "distance": 46,
        "cumulativeDistance": 13476.2
      }
    },
    {
      "type": "Feature",
      "geometry": {
        "type": "LineString",
        "coordinates": [
          [-0.365642, 51.977283],
          [-0.365067, 51.976837]
        ]
      },
      "properties": {
        "elevation": 56.5,
        "slope": 1,
        "speed": 4,
        "distance": 63.5,
        "cumulativeDistance": 13539.7
      }
    },
    {
      "type": "Feature",
      "geometry": {
        "type": "LineString",
        "coordinates": [
          [-0.365067, 51.976837],
          [-0.364225, 51.976308]
        ]
      },
      "properties": {
        "elevation": 57,
        "slope": 0,
        "speed": 4,
        "distance": 82.4,
        "cumulativeDistance": 13622.1
      }
    },
    {
      "type": "Feature",
      "geometry": {
        "type": "LineString",
        "coordinates": [
          [-0.364225, 51.976308],
          [-0.363462, 51.976008]
        ]
      },
      "properties": {
        "elevation": 57.5,
        "slope": 1,
        "speed": 4,
        "distance": 62.1,
        "cumulativeDistance": 13684.2
      }
    },
    {
      "type": "Feature",
      "geometry": {
        "type": "LineString",
        "coordinates": [
          [-0.363462, 51.976008],
          [-0.36083, 51.975058]
        ]
      },
      "properties": {
        "elevation": 58,
        "slope": 0,
        "speed": 4,
        "distance": 208.9,
        "cumulativeDistance": 13893.1
      }
    },
    {
      "type": "Feature",
      "geometry": {
        "type": "LineString",
        "coordinates": [
          [-0.36083, 51.975058],
          [-0.358922, 51.974667]
        ]
      },
      "properties": {
        "elevation": 58.5,
        "slope": 0,
        "speed": 4,
        "distance": 137.7,
        "cumulativeDistance": 14030.9
      }
    },
    {
      "type": "Feature",
      "geometry": {
        "type": "LineString",
        "coordinates": [
          [-0.358922, 51.974667],
          [-0.355939, 51.974888]
        ]
      },
      "properties": {
        "elevation": 60,
        "slope": 0,
        "speed": 4,
        "distance": 205.8,
        "cumulativeDistance": 14236.7
      }
    },
    {
      "type": "Feature",
      "geometry": {
        "type": "LineString",
        "coordinates": [
          [-0.355939, 51.974888],
          [-0.352272, 51.974443]
        ]
      },
      "properties": {
        "elevation": 62,
        "slope": 0,
        "speed": 4,
        "distance": 256,
        "cumulativeDistance": 14492.7
      }
    },
    {
      "type": "Feature",
      "geometry": {
        "type": "LineString",
        "coordinates": [
          [-0.352272, 51.974443],
          [-0.349865, 51.974306]
        ]
      },
      "properties": {
        "elevation": 63.5,
        "slope": 0,
        "speed": 4,
        "distance": 165.6,
        "cumulativeDistance": 14658.3
      }
    },
    {
      "type": "Feature",
      "geometry": {
        "type": "LineString",
        "coordinates": [
          [-0.349865, 51.974306],
          [-0.347536, 51.974437]
        ]
      },
      "properties": {
        "elevation": 65,
        "slope": 0,
        "speed": 4,
        "distance": 160.2,
        "cumulativeDistance": 14818.4
      }
    },
    {
      "type": "Feature",
      "geometry": {
        "type": "LineString",
        "coordinates": [
          [-0.347536, 51.974437],
          [-0.345456, 51.974247]
        ]
      },
      "properties": {
        "elevation": 66.5,
        "slope": 0,
        "speed": 4,
        "distance": 144,
        "cumulativeDistance": 14962.5
      }
    },
    {
      "type": "Feature",
      "geometry": {
        "type": "LineString",
        "coordinates": [
          [-0.345456, 51.974247],
          [-0.343922, 51.973963]
        ]
      },
      "properties": {
        "elevation": 66.5,
        "slope": -1,
        "speed": 4,
        "distance": 109.9,
        "cumulativeDistance": 15072.4
      }
    },
    {
      "type": "Feature",
      "geometry": {
        "type": "LineString",
        "coordinates": [
          [-0.343922, 51.973963],
          [-0.343422, 51.974048]
        ]
      },
      "properties": {
        "elevation": 66,
        "slope": 0,
        "speed": 4,
        "distance": 35.5,
        "cumulativeDistance": 15107.9
      }
    },
    {
      "type": "Feature",
      "geometry": {
        "type": "LineString",
        "coordinates": [
          [-0.343422, 51.974048],
          [-0.342783, 51.973467]
        ]
      },
      "properties": {
        "elevation": 65.5,
        "slope": -2,
        "speed": 4,
        "distance": 78.7,
        "cumulativeDistance": 15186.6
      }
    },
    {
      "type": "Feature",
      "geometry": {
        "type": "LineString",
        "coordinates": [
          [-0.342783, 51.973467],
          [-0.340471, 51.973407]
        ]
      },
      "properties": {
        "elevation": 65,
        "slope": 0,
        "speed": 4,
        "distance": 158.5,
        "cumulativeDistance": 15345.1
      }
    },
    {
      "type": "Feature",
      "geometry": {
        "type": "LineString",
        "coordinates": [
          [-0.340471, 51.973407],
          [-0.338372, 51.973937]
        ]
      },
      "properties": {
        "elevation": 64,
        "slope": -1,
        "speed": 4,
        "distance": 155.7,
        "cumulativeDistance": 15500.8
      }
    },
    {
      "type": "Feature",
      "geometry": {
        "type": "LineString",
        "coordinates": [
          [-0.338372, 51.973937],
          [-0.336834, 51.974178]
        ]
      },
      "properties": {
        "elevation": 63,
        "slope": 0,
        "speed": 4,
        "distance": 108.7,
        "cumulativeDistance": 15609.5
      }
    },
    {
      "type": "Feature",
      "geometry": {
        "type": "LineString",
        "coordinates": [
          [-0.336834, 51.974178],
          [-0.335943, 51.973448]
        ]
      },
      "properties": {
        "elevation": 68,
        "slope": 7,
        "speed": 4,
        "distance": 112.2,
        "cumulativeDistance": 15721.8
      }
    },
    {
      "type": "Feature",
      "geometry": {
        "type": "LineString",
        "coordinates": [
          [-0.335943, 51.973448],
          [-0.334582, 51.972453]
        ]
      },
      "properties": {
        "elevation": 73.5,
        "slope": 0,
        "speed": 4,
        "distance": 144.7,
        "cumulativeDistance": 15866.4
      }
    },
    {
      "type": "Feature",
      "geometry": {
        "type": "LineString",
        "coordinates": [
          [-0.334582, 51.972453],
          [-0.333852, 51.972158]
        ]
      },
      "properties": {
        "elevation": 74.5,
        "slope": 1,
        "speed": 4,
        "distance": 59.9,
        "cumulativeDistance": 15926.4
      }
    },
    {
      "type": "Feature",
      "geometry": {
        "type": "LineString",
        "coordinates": [
          [-0.333852, 51.972158],
          [-0.333059, 51.971776]
        ]
      },
      "properties": {
        "elevation": 75,
        "slope": 0,
        "speed": 4,
        "distance": 69,
        "cumulativeDistance": 15995.3
      }
    },
    {
      "type": "Feature",
      "geometry": {
        "type": "LineString",
        "coordinates": [
          [-0.333059, 51.971776],
          [-0.333163, 51.971638]
        ]
      },
      "properties": {
        "elevation": 75.5,
        "slope": 5,
        "speed": 4,
        "distance": 17.8,
        "cumulativeDistance": 16013.1
      }
    },
    {
      "type": "Feature",
      "geometry": {
        "type": "LineString",
        "coordinates": [
          [-0.333163, 51.971638],
          [-0.332579, 51.971376]
        ]
      },
      "properties": {
        "elevation": 75.5,
        "slope": -2,
        "speed": 4,
        "distance": 49.9,
        "cumulativeDistance": 16063
      }
    },
    {
      "type": "Feature",
      "geometry": {
        "type": "LineString",
        "coordinates": [
          [-0.332579, 51.971376],
          [-0.332182, 51.971458]
        ]
      },
      "properties": {
        "elevation": 74.5,
        "slope": -3,
        "speed": 4,
        "distance": 29.2,
        "cumulativeDistance": 16092.2
      }
    },
    {
      "type": "Feature",
      "geometry": {
        "type": "LineString",
        "coordinates": [
          [-0.332182, 51.971458],
          [-0.331946, 51.971318]
        ]
      },
      "properties": {
        "elevation": 74.5,
        "slope": 3,
        "speed": 4,
        "distance": 22.8,
        "cumulativeDistance": 16115
      }
    },
    {
      "type": "Feature",
      "geometry": {
        "type": "LineString",
        "coordinates": [
          [-0.331946, 51.971318],
          [-0.330719, 51.971466]
        ]
      },
      "properties": {
        "elevation": 74,
        "slope": -2,
        "speed": 4,
        "distance": 86.3,
        "cumulativeDistance": 16201.4
      }
    },
    {
      "type": "Feature",
      "geometry": {
        "type": "LineString",
        "coordinates": [
          [-0.330719, 51.971466],
          [-0.329308, 51.971606]
        ]
      },
      "properties": {
        "elevation": 72,
        "slope": -2,
        "speed": 4,
        "distance": 98.7,
        "cumulativeDistance": 16300
      }
    },
    {
      "type": "Feature",
      "geometry": {
        "type": "LineString",
        "coordinates": [
          [-0.329308, 51.971606],
          [-0.328992, 51.971943]
        ]
      },
      "properties": {
        "elevation": 71,
        "slope": 0,
        "speed": 4,
        "distance": 43.3,
        "cumulativeDistance": 16343.3
      }
    },
    {
      "type": "Feature",
      "geometry": {
        "type": "LineString",
        "coordinates": [
          [-0.328992, 51.971943],
          [-0.328217, 51.971718]
        ]
      },
      "properties": {
        "elevation": 70.5,
        "slope": -2,
        "speed": 4,
        "distance": 59.2,
        "cumulativeDistance": 16402.5
      }
    },
    {
      "type": "Feature",
      "geometry": {
        "type": "LineString",
        "coordinates": [
          [-0.328217, 51.971718],
          [-0.324937, 51.971778]
        ]
      },
      "properties": {
        "elevation": 69,
        "slope": -1,
        "speed": 4,
        "distance": 225.2,
        "cumulativeDistance": 16627.7
      }
    },
    {
      "type": "Feature",
      "geometry": {
        "type": "LineString",
        "coordinates": [
          [-0.324937, 51.971778],
          [-0.323917, 51.971678]
        ]
      },
      "properties": {
        "elevation": 67.5,
        "slope": -1,
        "speed": 4,
        "distance": 70.9,
        "cumulativeDistance": 16698.6
      }
    },
    {
      "type": "Feature",
      "geometry": {
        "type": "LineString",
        "coordinates": [
          [-0.323917, 51.971678],
          [-0.318456, 51.971504]
        ]
      },
      "properties": {
        "elevation": 64.5,
        "slope": -1,
        "speed": 4,
        "distance": 375.3,
        "cumulativeDistance": 17073.9
      }
    },
    {
      "type": "Feature",
      "geometry": {
        "type": "LineString",
        "coordinates": [
          [-0.318456, 51.971504],
          [-0.314637, 51.971188]
        ]
      },
      "properties": {
        "elevation": 61,
        "slope": -1,
        "speed": 4,
        "distance": 264.5,
        "cumulativeDistance": 17338.4
      }
    },
    {
      "type": "Feature",
      "geometry": {
        "type": "LineString",
        "coordinates": [
          [-0.314637, 51.971188],
          [-0.312335, 51.971276]
        ]
      },
      "properties": {
        "elevation": 59,
        "slope": -1,
        "speed": 4,
        "distance": 158.3,
        "cumulativeDistance": 17496.7
      }
    },
    {
      "type": "Feature",
      "geometry": {
        "type": "LineString",
        "coordinates": [
          [-0.312335, 51.971276],
          [-0.308916, 51.971137]
        ]
      },
      "properties": {
        "elevation": 57,
        "slope": -1,
        "speed": 4,
        "distance": 235.2,
        "cumulativeDistance": 17731.9
      }
    },
    {
      "type": "Feature",
      "geometry": {
        "type": "LineString",
        "coordinates": [
          [-0.308916, 51.971137],
          [-0.303145, 51.969637]
        ]
      },
      "properties": {
        "elevation": 59,
        "slope": 0,
        "speed": 4,
        "distance": 429.1,
        "cumulativeDistance": 18161
      }
    },
    {
      "type": "Feature",
      "geometry": {
        "type": "LineString",
        "coordinates": [
          [-0.303145, 51.969637],
          [-0.301783, 51.969527]
        ]
      },
      "properties": {
        "elevation": 62.5,
        "slope": 0,
        "speed": 4,
        "distance": 94.1,
        "cumulativeDistance": 18255.1
      }
    },
    {
      "type": "Feature",
      "geometry": {
        "type": "LineString",
        "coordinates": [
          [-0.301783, 51.969527],
          [-0.300348, 51.969417]
        ]
      },
      "properties": {
        "elevation": 63.5,
        "slope": 0,
        "speed": 4,
        "distance": 99.1,
        "cumulativeDistance": 18354.1
      }
    },
    {
      "type": "Feature",
      "geometry": {
        "type": "LineString",
        "coordinates": [
          [-0.300348, 51.969417],
          [-0.298301, 51.969447]
        ]
      },
      "properties": {
        "elevation": 63.5,
        "slope": -1,
        "speed": 4,
        "distance": 140.5,
        "cumulativeDistance": 18494.7
      }
    },
    {
      "type": "Feature",
      "geometry": {
        "type": "LineString",
        "coordinates": [
          [-0.298301, 51.969447],
          [-0.297407, 51.969546]
        ]
      },
      "properties": {
        "elevation": 62.5,
        "slope": -1,
        "speed": 4,
        "distance": 62.3,
        "cumulativeDistance": 18557
      }
    },
    {
      "type": "Feature",
      "geometry": {
        "type": "LineString",
        "coordinates": [
          [-0.297407, 51.969546],
          [-0.296126, 51.969547]
        ]
      },
      "properties": {
        "elevation": 62.5,
        "slope": 0,
        "speed": 4,
        "distance": 87.8,
        "cumulativeDistance": 18644.8
      }
    },
    {
      "type": "Feature",
      "geometry": {
        "type": "LineString",
        "coordinates": [
          [-0.296126, 51.969547],
          [-0.294735, 51.969638]
        ]
      },
      "properties": {
        "elevation": 63,
        "slope": 0,
        "speed": 4,
        "distance": 95.8,
        "cumulativeDistance": 18740.6
      }
    },
    {
      "type": "Feature",
      "geometry": {
        "type": "LineString",
        "coordinates": [
          [-0.294735, 51.969638],
          [-0.293436, 51.969856]
        ]
      },
      "properties": {
        "elevation": 63,
        "slope": 0,
        "speed": 4,
        "distance": 92.2,
        "cumulativeDistance": 18832.8
      }
    },
    {
      "type": "Feature",
      "geometry": {
        "type": "LineString",
        "coordinates": [
          [-0.293436, 51.969856],
          [-0.288326, 51.971584]
        ]
      },
      "properties": {
        "elevation": 61.5,
        "slope": -1,
        "speed": 4,
        "distance": 400.1,
        "cumulativeDistance": 19233
      }
    },
    {
      "type": "Feature",
      "geometry": {
        "type": "LineString",
        "coordinates": [
          [-0.288326, 51.971584],
          [-0.288049, 51.970947]
        ]
      },
      "properties": {
        "elevation": 60,
        "slope": 0,
        "speed": 4,
        "distance": 73.3,
        "cumulativeDistance": 19306.3
      }
    },
    {
      "type": "Feature",
      "geometry": {
        "type": "LineString",
        "coordinates": [
          [-0.288049, 51.970947],
          [-0.287832, 51.970308]
        ]
      },
      "properties": {
        "elevation": 60.5,
        "slope": 1,
        "speed": 4,
        "distance": 72.7,
        "cumulativeDistance": 19379
      }
    },
    {
      "type": "Feature",
      "geometry": {
        "type": "LineString",
        "coordinates": [
          [-0.287832, 51.970308],
          [-0.285071, 51.971177]
        ]
      },
      "properties": {
        "elevation": 60,
        "slope": -1,
        "speed": 4,
        "distance": 212.8,
        "cumulativeDistance": 19591.8
      }
    },
    {
      "type": "Feature",
      "geometry": {
        "type": "LineString",
        "coordinates": [
          [-0.285071, 51.971177],
          [-0.283406, 51.971954]
        ]
      },
      "properties": {
        "elevation": 58.5,
        "slope": -1,
        "speed": 4,
        "distance": 143.4,
        "cumulativeDistance": 19735.2
      }
    },
    {
      "type": "Feature",
      "geometry": {
        "type": "LineString",
        "coordinates": [
          [-0.283406, 51.971954],
          [-0.282745, 51.972138]
        ]
      },
      "properties": {
        "elevation": 57.5,
        "slope": -2,
        "speed": 4,
        "distance": 50.1,
        "cumulativeDistance": 19785.3
      }
    },
    {
      "type": "Feature",
      "geometry": {
        "type": "LineString",
        "coordinates": [
          [-0.282745, 51.972138],
          [-0.281755, 51.972147]
        ]
      },
      "properties": {
        "elevation": 56,
        "slope": -2,
        "speed": 4,
        "distance": 68.4,
        "cumulativeDistance": 19853.6
      }
    },
    {
      "type": "Feature",
      "geometry": {
        "type": "LineString",
        "coordinates": [
          [-0.281755, 51.972147],
          [-0.280452, 51.971683]
        ]
      },
      "properties": {
        "elevation": 54,
        "slope": -2,
        "speed": 4,
        "distance": 103.9,
        "cumulativeDistance": 19957.6
      }
    },
    {
      "type": "Feature",
      "geometry": {
        "type": "LineString",
        "coordinates": [
          [-0.280452, 51.971683],
          [-0.279827, 51.971366]
        ]
      },
      "properties": {
        "elevation": 53.5,
        "slope": 1,
        "speed": 4,
        "distance": 55.6,
        "cumulativeDistance": 20013.1
      }
    },
    {
      "type": "Feature",
      "geometry": {
        "type": "LineString",
        "coordinates": [
          [-0.279827, 51.971366],
          [-0.279339, 51.970837]
        ]
      },
      "properties": {
        "elevation": 53.5,
        "slope": -2,
        "speed": 4,
        "distance": 68.2,
        "cumulativeDistance": 20081.3
      }
    },
    {
      "type": "Feature",
      "geometry": {
        "type": "LineString",
        "coordinates": [
          [-0.279339, 51.970837],
          [-0.27776, 51.970718]
        ]
      },
      "properties": {
        "elevation": 52,
        "slope": -2,
        "speed": 4,
        "distance": 109.8,
        "cumulativeDistance": 20191.2
      }
    },
    {
      "type": "Feature",
      "geometry": {
        "type": "LineString",
        "coordinates": [
          [-0.27776, 51.970718],
          [-0.277079, 51.970878]
        ]
      },
      "properties": {
        "elevation": 50.5,
        "slope": -2,
        "speed": 4,
        "distance": 50.3,
        "cumulativeDistance": 20241.5
      }
    },
    {
      "type": "Feature",
      "geometry": {
        "type": "LineString",
        "coordinates": [
          [-0.277079, 51.970878],
          [-0.276262, 51.971048]
        ]
      },
      "properties": {
        "elevation": 49.5,
        "slope": -2,
        "speed": 4,
        "distance": 59.5,
        "cumulativeDistance": 20301
      }
    },
    {
      "type": "Feature",
      "geometry": {
        "type": "LineString",
        "coordinates": [
          [-0.276262, 51.971048],
          [-0.275703, 51.971017]
        ]
      },
      "properties": {
        "elevation": 49,
        "slope": 0,
        "speed": 4,
        "distance": 38.4,
        "cumulativeDistance": 20339.5
      }
    },
    {
      "type": "Feature",
      "geometry": {
        "type": "LineString",
        "coordinates": [
          [-0.275703, 51.971017],
          [-0.274841, 51.971227]
        ]
      },
      "properties": {
        "elevation": 49,
        "slope": 0,
        "speed": 4,
        "distance": 63.5,
        "cumulativeDistance": 20403
      }
    },
    {
      "type": "Feature",
      "geometry": {
        "type": "LineString",
        "coordinates": [
          [-0.274841, 51.971227],
          [-0.273572, 51.971347]
        ]
      },
      "properties": {
        "elevation": 51,
        "slope": 2,
        "speed": 4,
        "distance": 88.6,
        "cumulativeDistance": 20491.6
      }
    },
    {
      "type": "Feature",
      "geometry": {
        "type": "LineString",
        "coordinates": [
          [-0.273572, 51.971347],
          [-0.272104, 51.971438]
        ]
      },
      "properties": {
        "elevation": 54.5,
        "slope": 1,
        "speed": 4,
        "distance": 101.3,
        "cumulativeDistance": 20592.9
      }
    },
    {
      "type": "Feature",
      "geometry": {
        "type": "LineString",
        "coordinates": [
          [-0.272104, 51.971438],
          [-0.271602, 51.971393]
        ]
      },
      "properties": {
        "elevation": 56.5,
        "slope": 1,
        "speed": 4,
        "distance": 34.8,
        "cumulativeDistance": 20627.7
      }
    },
    {
      "type": "Feature",
      "geometry": {
        "type": "LineString",
        "coordinates": [
          [-0.271602, 51.971393],
          [-0.271523, 51.971468]
        ]
      },
      "properties": {
        "elevation": 57,
        "slope": 0,
        "speed": 4,
        "distance": 9.9,
        "cumulativeDistance": 20637.6
      }
    },
    {
      "type": "Feature",
      "geometry": {
        "type": "LineString",
        "coordinates": [
          [-0.271523, 51.971468],
          [-0.269815, 51.971846]
        ]
      },
      "properties": {
        "elevation": 57.5,
        "slope": 0,
        "speed": 4,
        "distance": 124.3,
        "cumulativeDistance": 20762
      }
    },
    {
      "type": "Feature",
      "geometry": {
        "type": "LineString",
        "coordinates": [
          [-0.269815, 51.971846],
          [-0.268134, 51.972368]
        ]
      },
      "properties": {
        "elevation": 57,
        "slope": -2,
        "speed": 4,
        "distance": 130,
        "cumulativeDistance": 20891.9
      }
    },
    {
      "type": "Feature",
      "geometry": {
        "type": "LineString",
        "coordinates": [
          [-0.268134, 51.972368],
          [-0.266325, 51.973678]
        ]
      },
      "properties": {
        "elevation": 53.5,
        "slope": -3,
        "speed": 4,
        "distance": 194.7,
        "cumulativeDistance": 21086.6
      }
    },
    {
      "type": "Feature",
      "geometry": {
        "type": "LineString",
        "coordinates": [
          [-0.266325, 51.973678],
          [-0.264472, 51.974438]
        ]
      },
      "properties": {
        "elevation": 51.5,
        "slope": 0,
        "speed": 4,
        "distance": 152.5,
        "cumulativeDistance": 21239.1
      }
    },
    {
      "type": "Feature",
      "geometry": {
        "type": "LineString",
        "coordinates": [
          [-0.264472, 51.974438],
          [-0.265018, 51.974846]
        ]
      },
      "properties": {
        "elevation": 52,
        "slope": 0,
        "speed": 4,
        "distance": 58.8,
        "cumulativeDistance": 21297.9
      }
    },
    {
      "type": "Feature",
      "geometry": {
        "type": "LineString",
        "coordinates": [
          [-0.265018, 51.974846],
          [-0.265935, 51.975226]
        ]
      },
      "properties": {
        "elevation": 52,
        "slope": 0,
        "speed": 4,
        "distance": 75.7,
        "cumulativeDistance": 21373.6
      }
    },
    {
      "type": "Feature",
      "geometry": {
        "type": "LineString",
        "coordinates": [
          [-0.265935, 51.975226],
          [-0.267439, 51.975478]
        ]
      },
      "properties": {
        "elevation": 51,
        "slope": -2,
        "speed": 4,
        "distance": 107.6,
        "cumulativeDistance": 21481.2
      }
    },
    {
      "type": "Feature",
      "geometry": {
        "type": "LineString",
        "coordinates": [
          [-0.267439, 51.975478],
          [-0.268422, 51.975793]
        ]
      },
      "properties": {
        "elevation": 49.5,
        "slope": -1,
        "speed": 4,
        "distance": 76,
        "cumulativeDistance": 21557.3
      }
    },
    {
      "type": "Feature",
      "geometry": {
        "type": "LineString",
        "coordinates": [
          [-0.268422, 51.975793],
          [-0.268897, 51.976348]
        ]
      },
      "properties": {
        "elevation": 49.5,
        "slope": 1,
        "speed": 4,
        "distance": 69.9,
        "cumulativeDistance": 21627.2
      }
    },
    {
      "type": "Feature",
      "geometry": {
        "type": "LineString",
        "coordinates": [
          [-0.268897, 51.976348],
          [-0.269625, 51.976816]
        ]
      },
      "properties": {
        "elevation": 50,
        "slope": 0,
        "speed": 4,
        "distance": 72.1,
        "cumulativeDistance": 21699.3
      }
    },
    {
      "type": "Feature",
      "geometry": {
        "type": "LineString",
        "coordinates": [
          [-0.269625, 51.976816],
          [-0.269816, 51.977037]
        ]
      },
      "properties": {
        "elevation": 50,
        "slope": 0,
        "speed": 4,
        "distance": 27.8,
        "cumulativeDistance": 21727.1
      }
    },
    {
      "type": "Feature",
      "geometry": {
        "type": "LineString",
        "coordinates": [
          [-0.269816, 51.977037],
          [-0.268805, 51.977567]
        ]
      },
      "properties": {
        "elevation": 51,
        "slope": 1,
        "speed": 4,
        "distance": 91.1,
        "cumulativeDistance": 21818.2
      }
    },
    {
      "type": "Feature",
      "geometry": {
        "type": "LineString",
        "coordinates": [
          [-0.268805, 51.977567],
          [-0.266619, 51.978826]
        ]
      },
      "properties": {
        "elevation": 57.5,
        "slope": 3,
        "speed": 4,
        "distance": 208.7,
        "cumulativeDistance": 22026.9
      }
    },
    {
      "type": "Feature",
      "geometry": {
        "type": "LineString",
        "coordinates": [
          [-0.266619, 51.978826],
          [-0.264982, 51.979858]
        ]
      },
      "properties": {
        "elevation": 67.5,
        "slope": 4,
        "speed": 4,
        "distance": 165.6,
        "cumulativeDistance": 22192.5
      }
    },
    {
      "type": "Feature",
      "geometry": {
        "type": "LineString",
        "coordinates": [
          [-0.264982, 51.979858],
          [-0.264783, 51.979838]
        ]
      },
      "properties": {
        "elevation": 74,
        "slope": 18,
        "speed": 4,
        "distance": 32.4,
        "cumulativeDistance": 22224.9
      }
    },
    {
      "type": "Feature",
      "geometry": {
        "type": "LineString",
        "coordinates": [
          [-0.264783, 51.979838],
          [-0.264072, 51.979643]
        ]
      },
      "properties": {
        "elevation": 77,
        "slope": 2,
        "speed": 4,
        "distance": 53.7,
        "cumulativeDistance": 22278.7
      }
    },
    {
      "type": "Feature",
      "geometry": {
        "type": "LineString",
        "coordinates": [
          [-0.264072, 51.979643],
          [-0.263157, 51.979606]
        ]
      },
      "properties": {
        "elevation": 79,
        "slope": 1,
        "speed": 4,
        "distance": 62.9,
        "cumulativeDistance": 22341.6
      }
    },
    {
      "type": "Feature",
      "geometry": {
        "type": "LineString",
        "coordinates": [
          [-0.263157, 51.979606],
          [-0.261166, 51.979597]
        ]
      },
      "properties": {
        "elevation": 80.5,
        "slope": 0,
        "speed": 4,
        "distance": 136.4,
        "cumulativeDistance": 22478
      }
    },
    {
      "type": "Feature",
      "geometry": {
        "type": "LineString",
        "coordinates": [
          [-0.261166, 51.979597],
          [-0.259525, 51.979748]
        ]
      },
      "properties": {
        "elevation": 80.5,
        "slope": -1,
        "speed": 4,
        "distance": 113.9,
        "cumulativeDistance": 22591.8
      }
    },
    {
      "type": "Feature",
      "geometry": {
        "type": "LineString",
        "coordinates": [
          [-0.259525, 51.979748],
          [-0.258136, 51.979626]
        ]
      },
      "properties": {
        "elevation": 80.5,
        "slope": 0,
        "speed": 4,
        "distance": 96.1,
        "cumulativeDistance": 22687.9
      }
    },
    {
      "type": "Feature",
      "geometry": {
        "type": "LineString",
        "coordinates": [
          [-0.258136, 51.979626],
          [-0.257152, 51.979333]
        ]
      },
      "properties": {
        "elevation": 81.5,
        "slope": 0,
        "speed": 4,
        "distance": 74.9,
        "cumulativeDistance": 22762.8
      }
    },
    {
      "type": "Feature",
      "geometry": {
        "type": "LineString",
        "coordinates": [
          [-0.257152, 51.979333],
          [-0.255075, 51.979336]
        ]
      },
      "properties": {
        "elevation": 82.5,
        "slope": 0,
        "speed": 4,
        "distance": 142.3,
        "cumulativeDistance": 22905
      }
    },
    {
      "type": "Feature",
      "geometry": {
        "type": "LineString",
        "coordinates": [
          [-0.255075, 51.979336],
          [-0.253768, 51.979337]
        ]
      },
      "properties": {
        "elevation": 84.5,
        "slope": 2,
        "speed": 4,
        "distance": 90.2,
        "cumulativeDistance": 22995.3
      }
    },
    {
      "type": "Feature",
      "geometry": {
        "type": "LineString",
        "coordinates": [
          [-0.253768, 51.979337],
          [-0.252818, 51.979216]
        ]
      },
      "properties": {
        "elevation": 86.5,
        "slope": 0,
        "speed": 4,
        "distance": 66.4,
        "cumulativeDistance": 23061.7
      }
    },
    {
      "type": "Feature",
      "geometry": {
        "type": "LineString",
        "coordinates": [
          [-0.252818, 51.979216],
          [-0.252382, 51.979298]
        ]
      },
      "properties": {
        "elevation": 87,
        "slope": 0,
        "speed": 4,
        "distance": 31.2,
        "cumulativeDistance": 23092.9
      }
    },
    {
      "type": "Feature",
      "geometry": {
        "type": "LineString",
        "coordinates": [
          [-0.252382, 51.979298],
          [-0.251309, 51.978856]
        ]
      },
      "properties": {
        "elevation": 87.5,
        "slope": 0,
        "speed": 4,
        "distance": 88.4,
        "cumulativeDistance": 23181.3
      }
    },
    {
      "type": "Feature",
      "geometry": {
        "type": "LineString",
        "coordinates": [
          [-0.251309, 51.978856],
          [-0.250557, 51.978608]
        ]
      },
      "properties": {
        "elevation": 88.5,
        "slope": 1,
        "speed": 4,
        "distance": 58.5,
        "cumulativeDistance": 23239.9
      }
    },
    {
      "type": "Feature",
      "geometry": {
        "type": "LineString",
        "coordinates": [
          [-0.250557, 51.978608],
          [-0.249092, 51.978453]
        ]
      },
      "properties": {
        "elevation": 88.5,
        "slope": -1,
        "speed": 4,
        "distance": 102,
        "cumulativeDistance": 23341.9
      }
    },
    {
      "type": "Feature",
      "geometry": {
        "type": "LineString",
        "coordinates": [
          [-0.249092, 51.978453],
          [-0.247687, 51.978357]
        ]
      },
      "properties": {
        "elevation": 88,
        "slope": 0,
        "speed": 4,
        "distance": 96.8,
        "cumulativeDistance": 23438.7
      }
    },
    {
      "type": "Feature",
      "geometry": {
        "type": "LineString",
        "coordinates": [
          [-0.247687, 51.978357],
          [-0.244895, 51.977938]
        ]
      },
      "properties": {
        "elevation": 87.5,
        "slope": -1,
        "speed": 4,
        "distance": 197.2,
        "cumulativeDistance": 23635.9
      }
    },
    {
      "type": "Feature",
      "geometry": {
        "type": "LineString",
        "coordinates": [
          [-0.244895, 51.977938],
          [-0.244272, 51.977798]
        ]
      },
      "properties": {
        "elevation": 87,
        "slope": 0,
        "speed": 4,
        "distance": 45.4,
        "cumulativeDistance": 23681.3
      }
    },
    {
      "type": "Feature",
      "geometry": {
        "type": "LineString",
        "coordinates": [
          [-0.244272, 51.977798],
          [-0.24272, 51.977918]
        ]
      },
      "properties": {
        "elevation": 85.5,
        "slope": -2,
        "speed": 4,
        "distance": 108,
        "cumulativeDistance": 23789.3
      }
    },
    {
      "type": "Feature",
      "geometry": {
        "type": "LineString",
        "coordinates": [
          [-0.24272, 51.977918],
          [-0.240022, 51.978347]
        ]
      },
      "properties": {
        "elevation": 81.5,
        "slope": -2,
        "speed": 4,
        "distance": 192.4,
        "cumulativeDistance": 23981.7
      }
    },
    {
      "type": "Feature",
      "geometry": {
        "type": "LineString",
        "coordinates": [
          [-0.240022, 51.978347],
          [-0.238569, 51.978778]
        ]
      },
      "properties": {
        "elevation": 76.5,
        "slope": -3,
        "speed": 4,
        "distance": 112.4,
        "cumulativeDistance": 24094.1
      }
    },
    {
      "type": "Feature",
      "geometry": {
        "type": "LineString",
        "coordinates": [
          [-0.238569, 51.978778],
          [-0.237722, 51.977883]
        ]
      },
      "properties": {
        "elevation": 76,
        "slope": 2,
        "speed": 4,
        "distance": 116.1,
        "cumulativeDistance": 24210.2
      }
    },
    {
      "type": "Feature",
      "geometry": {
        "type": "LineString",
        "coordinates": [
          [-0.237722, 51.977883],
          [-0.237435, 51.977526]
        ]
      },
      "properties": {
        "elevation": 76.5,
        "slope": -6,
        "speed": 4,
        "distance": 47.6,
        "cumulativeDistance": 24257.9
      }
    },
    {
      "type": "Feature",
      "geometry": {
        "type": "LineString",
        "coordinates": [
          [-0.237435, 51.977526],
          [-0.235126, 51.974347]
        ]
      },
      "properties": {
        "elevation": 81.5,
        "slope": 2,
        "speed": 4,
        "distance": 390.3,
        "cumulativeDistance": 24648.2
      }
    },
    {
      "type": "Feature",
      "geometry": {
        "type": "LineString",
        "coordinates": [
          [-0.235126, 51.974347],
          [-0.234616, 51.974517]
        ]
      },
      "properties": {
        "elevation": 87,
        "slope": -4,
        "speed": 4,
        "distance": 41,
        "cumulativeDistance": 24689.2
      }
    },
    {
      "type": "Feature",
      "geometry": {
        "type": "LineString",
        "coordinates": [
          [-0.234616, 51.974517],
          [-0.231672, 51.975473]
        ]
      },
      "properties": {
        "elevation": 87.5,
        "slope": 0,
        "speed": 4,
        "distance": 228,
        "cumulativeDistance": 24917.2
      }
    },
    {
      "type": "Feature",
      "geometry": {
        "type": "LineString",
        "coordinates": [
          [-0.231672, 51.975473],
          [-0.230942, 51.975618]
        ]
      },
      "properties": {
        "elevation": 89,
        "slope": 0,
        "speed": 4,
        "distance": 52.5,
        "cumulativeDistance": 24969.7
      }
    },
    {
      "type": "Feature",
      "geometry": {
        "type": "LineString",
        "coordinates": [
          [-0.230942, 51.975618],
          [-0.230693, 51.976377]
        ]
      },
      "properties": {
        "elevation": 88.5,
        "slope": -2,
        "speed": 4,
        "distance": 86.8,
        "cumulativeDistance": 25056.5
      }
    },
    {
      "type": "Feature",
      "geometry": {
        "type": "LineString",
        "coordinates": [
          [-0.230693, 51.976377],
          [-0.230471, 51.977007]
        ]
      },
      "properties": {
        "elevation": 87.5,
        "slope": -2,
        "speed": 4,
        "distance": 72.3,
        "cumulativeDistance": 25128.8
      }
    },
    {
      "type": "Feature",
      "geometry": {
        "type": "LineString",
        "coordinates": [
          [-0.230471, 51.977007],
          [-0.230232, 51.977067]
        ]
      },
      "properties": {
        "elevation": 87,
        "slope": 0,
        "speed": 4,
        "distance": 17.7,
        "cumulativeDistance": 25146.4
      }
    },
    {
      "type": "Feature",
      "geometry": {
        "type": "LineString",
        "coordinates": [
          [-0.230232, 51.977067],
          [-0.229374, 51.979438]
        ]
      },
      "properties": {
        "elevation": 85.5,
        "slope": -2,
        "speed": 4,
        "distance": 272.3,
        "cumulativeDistance": 25418.7
      }
    },
    {
      "type": "Feature",
      "geometry": {
        "type": "LineString",
        "coordinates": [
          [-0.229374, 51.979438],
          [-0.229313, 51.979738]
        ]
      },
      "properties": {
        "elevation": 84,
        "slope": 0,
        "speed": 4,
        "distance": 33.6,
        "cumulativeDistance": 25452.3
      }
    },
    {
      "type": "Feature",
      "geometry": {
        "type": "LineString",
        "coordinates": [
          [-0.229313, 51.979738],
          [-0.229182, 51.979893]
        ]
      },
      "properties": {
        "elevation": 83.5,
        "slope": -5,
        "speed": 4,
        "distance": 20.4,
        "cumulativeDistance": 25472.8
      }
    },
    {
      "type": "Feature",
      "geometry": {
        "type": "LineString",
        "coordinates": [
          [-0.229182, 51.979893],
          [-0.229292, 51.980118]
        ]
      },
      "properties": {
        "elevation": 83,
        "slope": 0,
        "speed": 4,
        "distance": 26.1,
        "cumulativeDistance": 25498.9
      }
    },
    {
      "type": "Feature",
      "geometry": {
        "type": "LineString",
        "coordinates": [
          [-0.229292, 51.980118],
          [-0.229379, 51.980256]
        ]
      },
      "properties": {
        "elevation": 82.5,
        "slope": -6,
        "speed": 4,
        "distance": 17.7,
        "cumulativeDistance": 25516.6
      }
    }
  ]
}
