{
  "type": "FeatureCollection",
  "features": [
    {
      "type": "Feature",
      "geometry": {
        "type": "LineString",
        "coordinates": [
          [-0.843897, 51.717986],
          [-0.843719, 51.717987]
        ]
      },
      "properties": {
        "elevation": 104,
        "slope": 0,
        "speed": 4,
        "distance": 12.3,
        "cumulativeDistance": 12.3
      }
    },
    {
      "type": "Feature",
      "geometry": {
        "type": "LineString",
        "coordinates": [
          [-0.843719, 51.717987],
          [-0.843689, 51.718498]
        ]
      },
      "properties": {
        "elevation": 104,
        "slope": 0,
        "speed": 4,
        "distance": 56.9,
        "cumulativeDistance": 69.1
      }
    },
    {
      "type": "Feature",
      "geometry": {
        "type": "LineString",
        "coordinates": [
          [-0.843689, 51.718498],
          [-0.842092, 51.718597]
        ]
      },
      "properties": {
        "elevation": 102.5,
        "slope": -2,
        "speed": 4,
        "distance": 111.4,
        "cumulativeDistance": 180.6
      }
    },
    {
      "type": "Feature",
      "geometry": {
        "type": "LineString",
        "coordinates": [
          [-0.842092, 51.718597],
          [-0.840464, 51.718008]
        ]
      },
      "properties": {
        "elevation": 104,
        "slope": 3,
        "speed": 4,
        "distance": 132.2,
        "cumulativeDistance": 312.8
      }
    },
    {
      "type": "Feature",
      "geometry": {
        "type": "LineString",
        "coordinates": [
          [-0.840464, 51.718008],
          [-0.839328, 51.718486]
        ]
      },
      "properties": {
        "elevation": 109,
        "slope": 2,
        "speed": 4,
        "distance": 95.4,
        "cumulativeDistance": 408.1
      }
    },
    {
      "type": "Feature",
      "geometry": {
        "type": "LineString",
        "coordinates": [
          [-0.839328, 51.718486],
          [-0.838197, 51.717898]
        ]
      },
      "properties": {
        "elevation": 112,
        "slope": 1,
        "speed": 4,
        "distance": 101.9,
        "cumulativeDistance": 510
      }
    },
    {
      "type": "Feature",
      "geometry": {
        "type": "LineString",
        "coordinates": [
          [-0.838197, 51.717898],
          [-0.836453, 51.716778]
        ]
      },
      "properties": {
        "elevation": 115,
        "slope": 1,
        "speed": 4,
        "distance": 173.4,
        "cumulativeDistance": 683.4
      }
    },
    {
      "type": "Feature",
      "geometry": {
        "type": "LineString",
        "coordinates": [
          [-0.836453, 51.716778],
          [-0.835356, 51.715476]
        ]
      },
      "properties": {
        "elevation": 115.5,
        "slope": -2,
        "speed": 4,
        "distance": 164.6,
        "cumulativeDistance": 848
      }
    },
    {
      "type": "Feature",
      "geometry": {
        "type": "LineString",
        "coordinates": [
          [-0.835356, 51.715476],
          [-0.832037, 51.716497]
        ]
      },
      "properties": {
        "elevation": 120.5,
        "slope": 3,
        "speed": 4,
        "distance": 259.9,
        "cumulativeDistance": 1107.9
      }
    },
    {
      "type": "Feature",
      "geometry": {
        "type": "LineString",
        "coordinates": [
          [-0.832037, 51.716497],
          [-0.828752, 51.718133]
        ]
      },
      "properties": {
        "elevation": 133,
        "slope": 2,
        "speed": 4,
        "distance": 292.7,
        "cumulativeDistance": 1400.6
      }
    },
    {
      "type": "Feature",
      "geometry": {
        "type": "LineString",
        "coordinates": [
          [-0.828752, 51.718133],
          [-0.828482, 51.718308]
        ]
      },
      "properties": {
        "elevation": 139,
        "slope": 0,
        "speed": 4,
        "distance": 26.9,
        "cumulativeDistance": 1427.5
      }
    },
    {
      "type": "Feature",
      "geometry": {
        "type": "LineString",
        "coordinates": [
          [-0.828482, 51.718308],
          [-0.827922, 51.718947]
        ]
      },
      "properties": {
        "elevation": 140,
        "slope": 2,
        "speed": 4,
        "distance": 81.5,
        "cumulativeDistance": 1509
      }
    },
    {
      "type": "Feature",
      "geometry": {
        "type": "LineString",
        "coordinates": [
          [-0.827922, 51.718947],
          [-0.827323, 51.719358]
        ]
      },
      "properties": {
        "elevation": 141,
        "slope": 0,
        "speed": 4,
        "distance": 61.6,
        "cumulativeDistance": 1570.6
      }
    },
    {
      "type": "Feature",
      "geometry": {
        "type": "LineString",
        "coordinates": [
          [-0.827323, 51.719358],
          [-0.826249, 51.719696]
        ]
      },
      "properties": {
        "elevation": 141.5,
        "slope": 0,
        "speed": 4,
        "distance": 83,
        "cumulativeDistance": 1653.6
      }
    },
    {
      "type": "Feature",
      "geometry": {
        "type": "LineString",
        "coordinates": [
          [-0.826249, 51.719696],
          [-0.825659, 51.719996]
        ]
      },
      "properties": {
        "elevation": 142.5,
        "slope": 1,
        "speed": 4,
        "distance": 52.7,
        "cumulativeDistance": 1706.2
      }
    },
    {
      "type": "Feature",
      "geometry": {
        "type": "LineString",
        "coordinates": [
          [-0.825659, 51.719996],
          [-0.825008, 51.720966]
        ]
      },
      "properties": {
        "elevation": 140.5,
        "slope": -4,
        "speed": 4,
        "distance": 120.6,
        "cumulativeDistance": 1826.8
      }
    },
    {
      "type": "Feature",
      "geometry": {
        "type": "LineString",
        "coordinates": [
          [-0.825008, 51.720966],
          [-0.823507, 51.721678]
        ]
      },
      "properties": {
        "elevation": 137.5,
        "slope": -1,
        "speed": 4,
        "distance": 130.5,
        "cumulativeDistance": 1957.3
      }
    },
    {
      "type": "Feature",
      "geometry": {
        "type": "LineString",
        "coordinates": [
          [-0.823507, 51.721678],
          [-0.821876, 51.721927]
        ]
      },
      "properties": {
        "elevation": 140,
        "slope": 3,
        "speed": 4,
        "distance": 117.8,
        "cumulativeDistance": 2075.1
      }
    },
    {
      "type": "Feature",
      "geometry": {
        "type": "LineString",
        "coordinates": [
          [-0.821876, 51.721927],
          [-0.820941, 51.722627]
        ]
      },
      "properties": {
        "elevation": 143.5,
        "slope": 0,
        "speed": 4,
        "distance": 101,
        "cumulativeDistance": 2176.2
      }
    },
    {
      "type": "Feature",
      "geometry": {
        "type": "LineString",
        "coordinates": [
          [-0.820941, 51.722627],
          [-0.816039, 51.722937]
        ]
      },
      "properties": {
        "elevation": 158.5,
        "slope": 5,
        "speed": 4,
        "distance": 356.9,
        "cumulativeDistance": 2533
      }
    },
    {
      "type": "Feature",
      "geometry": {
        "type": "LineString",
        "coordinates": [
          [-0.816039, 51.722937],
          [-0.814424, 51.723328]
        ]
      },
      "properties": {
        "elevation": 192,
        "slope": 20,
        "speed": 4,
        "distance": 386.5,
        "cumulativeDistance": 2919.5
      }
    },
    {
      "type": "Feature",
      "geometry": {
        "type": "LineString",
        "coordinates": [
          [-0.814424, 51.723328],
          [-0.813254, 51.723438]
        ]
      },
      "properties": {
        "elevation": 216.5,
        "slope": 8,
        "speed": 4,
        "distance": 93,
        "cumulativeDistance": 3012.6
      }
    },
    {
      "type": "Feature",
      "geometry": {
        "type": "LineString",
        "coordinates": [
          [-0.813254, 51.723438],
          [-0.811622, 51.724123]
        ]
      },
      "properties": {
        "elevation": 229,
        "slope": 7,
        "speed": 4,
        "distance": 150.1,
        "cumulativeDistance": 3162.6
      }
    },
    {
      "type": "Feature",
      "geometry": {
        "type": "LineString",
        "coordinates": [
          [-0.811622, 51.724123],
          [-0.811165, 51.724466]
        ]
      },
      "properties": {
        "elevation": 238.5,
        "slope": 7,
        "speed": 4,
        "distance": 54.7,
        "cumulativeDistance": 3217.3
      }
    },
    {
      "type": "Feature",
      "geometry": {
        "type": "LineString",
        "coordinates": [
          [-0.811165, 51.724466],
          [-0.810899, 51.725036]
        ]
      },
      "properties": {
        "elevation": 239,
        "slope": -6,
        "speed": 4,
        "distance": 71,
        "cumulativeDistance": 3288.2
      }
    },
    {
      "type": "Feature",
      "geometry": {
        "type": "LineString",
        "coordinates": [
          [-0.810899, 51.725036],
          [-0.809963, 51.724948]
        ]
      },
      "properties": {
        "elevation": 240.5,
        "slope": 6,
        "speed": 4,
        "distance": 70.1,
        "cumulativeDistance": 3358.4
      }
    },
    {
      "type": "Feature",
      "geometry": {
        "type": "LineString",
        "coordinates": [
          [-0.809963, 51.724948],
          [-0.809982, 51.725123]
        ]
      },
      "properties": {
        "elevation": 242.5,
        "slope": -16,
        "speed": 4,
        "distance": 36.4,
        "cumulativeDistance": 3394.8
      }
    },
    {
      "type": "Feature",
      "geometry": {
        "type": "LineString",
        "coordinates": [
          [-0.809982, 51.725123],
          [-0.810615, 51.725418]
        ]
      },
      "properties": {
        "elevation": 241,
        "slope": 0,
        "speed": 4,
        "distance": 54.6,
        "cumulativeDistance": 3449.3
      }
    },
    {
      "type": "Feature",
      "geometry": {
        "type": "LineString",
        "coordinates": [
          [-0.810615, 51.725418],
          [-0.810582, 51.726183]
        ]
      },
      "properties": {
        "elevation": 238.5,
        "slope": -6,
        "speed": 4,
        "distance": 91.5,
        "cumulativeDistance": 3540.9
      }
    },
    {
      "type": "Feature",
      "geometry": {
        "type": "LineString",
        "coordinates": [
          [-0.810582, 51.726183],
          [-0.810515, 51.726346]
        ]
      },
      "properties": {
        "elevation": 236,
        "slope": 0,
        "speed": 4,
        "distance": 18.7,
        "cumulativeDistance": 3559.6
      }
    },
    {
      "type": "Feature",
      "geometry": {
        "type": "LineString",
        "coordinates": [
          [-0.810515, 51.726346],
          [-0.810548, 51.726636]
        ]
      },
      "properties": {
        "elevation": 235,
        "slope": -7,
        "speed": 4,
        "distance": 35.7,
        "cumulativeDistance": 3595.3
      }
    },
    {
      "type": "Feature",
      "geometry": {
        "type": "LineString",
        "coordinates": [
          [-0.810548, 51.726636],
          [-0.810712, 51.726858]
        ]
      },
      "properties": {
        "elevation": 233.5,
        "slope": -4,
        "speed": 4,
        "distance": 28,
        "cumulativeDistance": 3623.3
      }
    },
    {
      "type": "Feature",
      "geometry": {
        "type": "LineString",
        "coordinates": [
          [-0.810712, 51.726858],
          [-0.810729, 51.727066]
        ]
      },
      "properties": {
        "elevation": 233,
        "slope": 0,
        "speed": 4,
        "distance": 23.2,
        "cumulativeDistance": 3646.5
      }
    },
    {
      "type": "Feature",
      "geometry": {
        "type": "LineString",
        "coordinates": [
          [-0.810729, 51.727066],
          [-0.810447, 51.727747]
        ]
      },
      "properties": {
        "elevation": 232,
        "slope": -3,
        "speed": 4,
        "distance": 79.6,
        "cumulativeDistance": 3726.1
      }
    },
    {
      "type": "Feature",
      "geometry": {
        "type": "LineString",
        "coordinates": [
          [-0.810447, 51.727747],
          [-0.810552, 51.728028]
        ]
      },
      "properties": {
        "elevation": 231,
        "slope": 0,
        "speed": 4,
        "distance": 32.1,
        "cumulativeDistance": 3758.1
      }
    },
    {
      "type": "Feature",
      "geometry": {
        "type": "LineString",
        "coordinates": [
          [-0.810552, 51.728028],
          [-0.810662, 51.728843]
        ]
      },
      "properties": {
        "elevation": 231,
        "slope": 0,
        "speed": 4,
        "distance": 90.9,
        "cumulativeDistance": 3849.1
      }
    },
    {
      "type": "Feature",
      "geometry": {
        "type": "LineString",
        "coordinates": [
          [-0.810662, 51.728843],
          [-0.808713, 51.729267]
        ]
      },
      "properties": {
        "elevation": 226.5,
        "slope": -5,
        "speed": 4,
        "distance": 149.6,
        "cumulativeDistance": 3998.7
      }
    },
    {
      "type": "Feature",
      "geometry": {
        "type": "LineString",
        "coordinates": [
          [-0.808713, 51.729267],
          [-0.807742, 51.729277]
        ]
      },
      "properties": {
        "elevation": 218.5,
        "slope": -7,
        "speed": 4,
        "distance": 73.9,
        "cumulativeDistance": 4072.6
      }
    },
    {
      "type": "Feature",
      "geometry": {
        "type": "LineString",
        "coordinates": [
          [-0.807742, 51.729277],
          [-0.805519, 51.729826]
        ]
      },
      "properties": {
        "elevation": 199.5,
        "slope": -13,
        "speed": 4,
        "distance": 240.8,
        "cumulativeDistance": 4313.4
      }
    },
    {
      "type": "Feature",
      "geometry": {
        "type": "LineString",
        "coordinates": [
          [-0.805519, 51.729826],
          [-0.804706, 51.730198]
        ]
      },
      "properties": {
        "elevation": 181.5,
        "slope": -6,
        "speed": 4,
        "distance": 74.9,
        "cumulativeDistance": 4388.2
      }
    },
    {
      "type": "Feature",
      "geometry": {
        "type": "LineString",
        "coordinates": [
          [-0.804706, 51.730198],
          [-0.804479, 51.730436]
        ]
      },
      "properties": {
        "elevation": 177.5,
        "slope": -9,
        "speed": 4,
        "distance": 36.4,
        "cumulativeDistance": 4424.6
      }
    },
    {
      "type": "Feature",
      "geometry": {
        "type": "LineString",
        "coordinates": [
          [-0.804479, 51.730436],
          [-0.804418, 51.730536]
        ]
      },
      "properties": {
        "elevation": 176,
        "slope": 0,
        "speed": 4,
        "distance": 11.9,
        "cumulativeDistance": 4436.5
      }
    },
    {
      "type": "Feature",
      "geometry": {
        "type": "LineString",
        "coordinates": [
          [-0.804418, 51.730536],
          [-0.804487, 51.730998]
        ]
      },
      "properties": {
        "elevation": 173,
        "slope": -12,
        "speed": 4,
        "distance": 70.8,
        "cumulativeDistance": 4507.3
      }
    },
    {
      "type": "Feature",
      "geometry": {
        "type": "LineString",
        "coordinates": [
          [-0.804487, 51.730998],
          [-0.804597, 51.731278]
        ]
      },
      "properties": {
        "elevation": 170,
        "slope": 0,
        "speed": 4,
        "distance": 32,
        "cumulativeDistance": 4539.3
      }
    },
    {
      "type": "Feature",
      "geometry": {
        "type": "LineString",
        "coordinates": [
          [-0.804597, 51.731278],
          [-0.804487, 51.731978]
        ]
      },
      "properties": {
        "elevation": 161.5,
        "slope": -22,
        "speed": 4,
        "distance": 417.4,
        "cumulativeDistance": 4956.7
      }
    },
    {
      "type": "Feature",
      "geometry": {
        "type": "LineString",
        "coordinates": [
          [-0.804487, 51.731978],
          [-0.804736, 51.732387]
        ]
      },
      "properties": {
        "elevation": 148.5,
        "slope": -17,
        "speed": 4,
        "distance": 100.9,
        "cumulativeDistance": 5057.6
      }
    },
    {
      "type": "Feature",
      "geometry": {
        "type": "LineString",
        "coordinates": [
          [-0.804736, 51.732387],
          [-0.804463, 51.732807]
        ]
      },
      "properties": {
        "elevation": 143,
        "slope": -4,
        "speed": 4,
        "distance": 52,
        "cumulativeDistance": 5109.6
      }
    },
    {
      "type": "Feature",
      "geometry": {
        "type": "LineString",
        "coordinates": [
          [-0.804463, 51.732807],
          [-0.804917, 51.733346]
        ]
      },
      "properties": {
        "elevation": 141.5,
        "slope": -2,
        "speed": 4,
        "distance": 68.1,
        "cumulativeDistance": 5177.7
      }
    },
    {
      "type": "Feature",
      "geometry": {
        "type": "LineString",
        "coordinates": [
          [-0.804917, 51.733346],
          [-0.805095, 51.733768]
        ]
      },
      "properties": {
        "elevation": 141.5,
        "slope": 2,
        "speed": 4,
        "distance": 48.9,
        "cumulativeDistance": 5226.6
      }
    },
    {
      "type": "Feature",
      "geometry": {
        "type": "LineString",
        "coordinates": [
          [-0.805095, 51.733768],
          [-0.803936, 51.734954]
        ]
      },
      "properties": {
        "elevation": 144.5,
        "slope": 2,
        "speed": 4,
        "distance": 155.4,
        "cumulativeDistance": 5381.9
      }
    },
    {
      "type": "Feature",
      "geometry": {
        "type": "LineString",
        "coordinates": [
          [-0.803936, 51.734954],
          [-0.804075, 51.735128]
        ]
      },
      "properties": {
        "elevation": 143.5,
        "slope": -30,
        "speed": 4,
        "distance": 69.9,
        "cumulativeDistance": 5451.8
      }
    },
    {
      "type": "Feature",
      "geometry": {
        "type": "LineString",
        "coordinates": [
          [-0.804075, 51.735128],
          [-0.804065, 51.735447]
        ]
      },
      "properties": {
        "elevation": 141.5,
        "slope": 8,
        "speed": 4,
        "distance": 40.5,
        "cumulativeDistance": 5492.3
      }
    },
    {
      "type": "Feature",
      "geometry": {
        "type": "LineString",
        "coordinates": [
          [-0.804065, 51.735447],
          [-0.80381, 51.736308]
        ]
      },
      "properties": {
        "elevation": 148.5,
        "slope": 11,
        "speed": 4,
        "distance": 126.3,
        "cumulativeDistance": 5618.6
      }
    },
    {
      "type": "Feature",
      "geometry": {
        "type": "LineString",
        "coordinates": [
          [-0.80381, 51.736308],
          [-0.802343, 51.737788]
        ]
      },
      "properties": {
        "elevation": 163,
        "slope": 7,
        "speed": 4,
        "distance": 213.4,
        "cumulativeDistance": 5832
      }
    },
    {
      "type": "Feature",
      "geometry": {
        "type": "LineString",
        "coordinates": [
          [-0.802343, 51.737788],
          [-0.803004, 51.738048]
        ]
      },
      "properties": {
        "elevation": 170.5,
        "slope": -4,
        "speed": 4,
        "distance": 55.7,
        "cumulativeDistance": 5887.7
      }
    },
    {
      "type": "Feature",
      "geometry": {
        "type": "LineString",
        "coordinates": [
          [-0.803004, 51.738048],
          [-0.804338, 51.738266]
        ]
      },
      "properties": {
        "elevation": 164,
        "slope": -7,
        "speed": 4,
        "distance": 105,
        "cumulativeDistance": 5992.7
      }
    },
    {
      "type": "Feature",
      "geometry": {
        "type": "LineString",
        "coordinates": [
          [-0.804338, 51.738266],
          [-0.805707, 51.738928]
        ]
      },
      "properties": {
        "elevation": 152.5,
        "slope": -8,
        "speed": 4,
        "distance": 136.5,
        "cumulativeDistance": 6129.2
      }
    },
    {
      "type": "Feature",
      "geometry": {
        "type": "LineString",
        "coordinates": [
          [-0.805707, 51.738928],
          [-0.808262, 51.739913]
        ]
      },
      "properties": {
        "elevation": 140.5,
        "slope": -4,
        "speed": 4,
        "distance": 214,
        "cumulativeDistance": 6343.1
      }
    },
    {
      "type": "Feature",
      "geometry": {
        "type": "LineString",
        "coordinates": [
          [-0.808262, 51.739913],
          [-0.809902, 51.740703]
        ]
      },
      "properties": {
        "elevation": 134.5,
        "slope": -1,
        "speed": 4,
        "distance": 143.3,
        "cumulativeDistance": 6486.5
      }
    },
    {
      "type": "Feature",
      "geometry": {
        "type": "LineString",
        "coordinates": [
          [-0.809902, 51.740703],
          [-0.812652, 51.742868]
        ]
      },
      "properties": {
        "elevation": 127.5,
        "slope": -4,
        "speed": 4,
        "distance": 316.2,
        "cumulativeDistance": 6802.7
      }
    },
    {
      "type": "Feature",
      "geometry": {
        "type": "LineString",
        "coordinates": [
          [-0.812652, 51.742868],
          [-0.813425, 51.743976]
        ]
      },
      "properties": {
        "elevation": 119.5,
        "slope": -2,
        "speed": 4,
        "distance": 135.3,
        "cumulativeDistance": 6938
      }
    },
    {
      "type": "Feature",
      "geometry": {
        "type": "LineString",
        "coordinates": [
          [-0.813425, 51.743976],
          [-0.814222, 51.744658]
        ]
      },
      "properties": {
        "elevation": 117,
        "slope": -2,
        "speed": 4,
        "distance": 94.3,
        "cumulativeDistance": 7032.3
      }
    },
    {
      "type": "Feature",
      "geometry": {
        "type": "LineString",
        "coordinates": [
          [-0.814222, 51.744658],
          [-0.814243, 51.744837]
        ]
      },
      "properties": {
        "elevation": 116,
        "slope": 0,
        "speed": 4,
        "distance": 20,
        "cumulativeDistance": 7052.3
      }
    },
    {
      "type": "Feature",
      "geometry": {
        "type": "LineString",
        "coordinates": [
          [-0.814243, 51.744837],
          [-0.814121, 51.745087]
        ]
      },
      "properties": {
        "elevation": 115.5,
        "slope": -4,
        "speed": 4,
        "distance": 30,
        "cumulativeDistance": 7082.3
      }
    },
    {
      "type": "Feature",
      "geometry": {
        "type": "LineString",
        "coordinates": [
          [-0.814121, 51.745087],
          [-0.813402, 51.745843]
        ]
      },
      "properties": {
        "elevation": 114,
        "slope": -2,
        "speed": 4,
        "distance": 98.3,
        "cumulativeDistance": 7180.6
      }
    },
    {
      "type": "Feature",
      "geometry": {
        "type": "LineString",
        "coordinates": [
          [-0.813402, 51.745843],
          [-0.813342, 51.746218]
        ]
      },
      "properties": {
        "elevation": 113,
        "slope": 0,
        "speed": 4,
        "distance": 41.9,
        "cumulativeDistance": 7222.5
      }
    },
    {
      "type": "Feature",
      "geometry": {
        "type": "LineString",
        "coordinates": [
          [-0.813342, 51.746218],
          [-0.811217, 51.747998]
        ]
      },
      "properties": {
        "elevation": 111.5,
        "slope": -1,
        "speed": 4,
        "distance": 246.6,
        "cumulativeDistance": 7469.1
      }
    },
    {
      "type": "Feature",
      "geometry": {
        "type": "LineString",
        "coordinates": [
          [-0.811217, 51.747998],
          [-0.811727, 51.748028]
        ]
      },
      "properties": {
        "elevation": 110.5,
        "slope": 1,
        "speed": 4,
        "distance": 35.3,
        "cumulativeDistance": 7504.4
      }
    },
    {
      "type": "Feature",
      "geometry": {
        "type": "LineString",
        "coordinates": [
          [-0.811727, 51.748028],
          [-0.812286, 51.748264]
        ]
      },
      "properties": {
        "elevation": 111.5,
        "slope": 1,
        "speed": 4,
        "distance": 46.7,
        "cumulativeDistance": 7551.1
      }
    },
    {
      "type": "Feature",
      "geometry": {
        "type": "LineString",
        "coordinates": [
          [-0.812286, 51.748264],
          [-0.813535, 51.749057]
        ]
      },
      "properties": {
        "elevation": 112.5,
        "slope": 0,
        "speed": 4,
        "distance": 123.2,
        "cumulativeDistance": 7674.3
      }
    },
    {
      "type": "Feature",
      "geometry": {
        "type": "LineString",
        "coordinates": [
          [-0.813535, 51.749057],
          [-0.815386, 51.750476]
        ]
      },
      "properties": {
        "elevation": 113,
        "slope": 0,
        "speed": 4,
        "distance": 202.8,
        "cumulativeDistance": 7877.1
      }
    },
    {
      "type": "Feature",
      "geometry": {
        "type": "LineString",
        "coordinates": [
          [-0.815386, 51.750476],
          [-0.813901, 51.751367]
        ]
      },
      "properties": {
        "elevation": 112.5,
        "slope": -1,
        "speed": 4,
        "distance": 142.6,
        "cumulativeDistance": 8019.7
      }
    },
    {
      "type": "Feature",
      "geometry": {
        "type": "LineString",
        "coordinates": [
          [-0.813901, 51.751367],
          [-0.812217, 51.750796]
        ]
      },
      "properties": {
        "elevation": 112,
        "slope": 0,
        "speed": 4,
        "distance": 132.2,
        "cumulativeDistance": 8151.9
      }
    },
    {
      "type": "Feature",
      "geometry": {
        "type": "LineString",
        "coordinates": [
          [-0.812217, 51.750796],
          [-0.810892, 51.750158]
        ]
      },
      "properties": {
        "elevation": 112,
        "slope": 0,
        "speed": 4,
        "distance": 115.6,
        "cumulativeDistance": 8267.4
      }
    },
    {
      "type": "Feature",
      "geometry": {
        "type": "LineString",
        "coordinates": [
          [-0.810892, 51.750158],
          [-0.808695, 51.749366]
        ]
      },
      "properties": {
        "elevation": 110.5,
        "slope": -2,
        "speed": 4,
        "distance": 176.4,
        "cumulativeDistance": 8443.8
      }
    },
    {
      "type": "Feature",
      "geometry": {
        "type": "LineString",
        "coordinates": [
          [-0.808695, 51.749366],
          [-0.808554, 51.749048]
        ]
      },
      "properties": {
        "elevation": 109,
        "slope": 0,
        "speed": 4,
        "distance": 36.7,
        "cumulativeDistance": 8480.5
      }
    },
    {
      "type": "Feature",
      "geometry": {
        "type": "LineString",
        "coordinates": [
          [-0.808554, 51.749048],
          [-0.808312, 51.748818]
        ]
      },
      "properties": {
        "elevation": 109.5,
        "slope": 2,
        "speed": 4,
        "distance": 30.8,
        "cumulativeDistance": 8511.3
      }
    },
    {
      "type": "Feature",
      "geometry": {
        "type": "LineString",
        "coordinates": [
          [-0.808312, 51.748818],
          [-0.808288, 51.748526]
        ]
      },
      "properties": {
        "elevation": 110,
        "slope": 0,
        "speed": 4,
        "distance": 32.5,
        "cumulativeDistance": 8543.8
      }
    },
    {
      "type": "Feature",
      "geometry": {
        "type": "LineString",
        "coordinates": [
          [-0.808288, 51.748526],
          [-0.806616, 51.747397]
        ]
      },
      "properties": {
        "elevation": 115,
        "slope": 4,
        "speed": 4,
        "distance": 175.8,
        "cumulativeDistance": 8719.6
      }
    },
    {
      "type": "Feature",
      "geometry": {
        "type": "LineString",
        "coordinates": [
          [-0.806616, 51.747397],
          [-0.806749, 51.746866]
        ]
      },
      "properties": {
        "elevation": 120.5,
        "slope": 1,
        "speed": 4,
        "distance": 59.9,
        "cumulativeDistance": 8779.5
      }
    },
    {
      "type": "Feature",
      "geometry": {
        "type": "LineString",
        "coordinates": [
          [-0.806749, 51.746866],
          [-0.805246, 51.746477]
        ]
      },
      "properties": {
        "elevation": 124.5,
        "slope": 4,
        "speed": 4,
        "distance": 115.8,
        "cumulativeDistance": 8895.3
      }
    },
    {
      "type": "Feature",
      "geometry": {
        "type": "LineString",
        "coordinates": [
          [-0.805246, 51.746477],
          [-0.805646, 51.745896]
        ]
      },
      "properties": {
        "elevation": 126.5,
        "slope": -4,
        "speed": 4,
        "distance": 72.5,
        "cumulativeDistance": 8967.8
      }
    },
    {
      "type": "Feature",
      "geometry": {
        "type": "LineString",
        "coordinates": [
          [-0.805646, 51.745896],
          [-0.805785, 51.745456]
        ]
      },
      "properties": {
        "elevation": 125,
        "slope": 0,
        "speed": 4,
        "distance": 49.9,
        "cumulativeDistance": 9017.7
      }
    },
    {
      "type": "Feature",
      "geometry": {
        "type": "LineString",
        "coordinates": [
          [-0.805785, 51.745456],
          [-0.805528, 51.744936]
        ]
      },
      "properties": {
        "elevation": 127,
        "slope": 6,
        "speed": 4,
        "distance": 65,
        "cumulativeDistance": 9082.7
      }
    },
    {
      "type": "Feature",
      "geometry": {
        "type": "LineString",
        "coordinates": [
          [-0.805528, 51.744936],
          [-0.805189, 51.744506]
        ]
      },
      "properties": {
        "elevation": 133,
        "slope": 13,
        "speed": 4,
        "distance": 77.7,
        "cumulativeDistance": 9160.4
      }
    },
    {
      "type": "Feature",
      "geometry": {
        "type": "LineString",
        "coordinates": [
          [-0.805189, 51.744506],
          [-0.802496, 51.742287]
        ]
      },
      "properties": {
        "elevation": 154,
        "slope": 8,
        "speed": 4,
        "distance": 352.2,
        "cumulativeDistance": 9512.6
      }
    },
    {
      "type": "Feature",
      "geometry": {
        "type": "LineString",
        "coordinates": [
          [-0.802496, 51.742287],
          [-0.799702, 51.741903]
        ]
      },
      "properties": {
        "elevation": 177.5,
        "slope": 4,
        "speed": 4,
        "distance": 203.4,
        "cumulativeDistance": 9716.1
      }
    },
    {
      "type": "Feature",
      "geometry": {
        "type": "LineString",
        "coordinates": [
          [-0.799702, 51.741903],
          [-0.797318, 51.740796]
        ]
      },
      "properties": {
        "elevation": 190.5,
        "slope": 4,
        "speed": 4,
        "distance": 211.8,
        "cumulativeDistance": 9927.9
      }
    },
    {
      "type": "Feature",
      "geometry": {
        "type": "LineString",
        "coordinates": [
          [-0.797318, 51.740796],
          [-0.797122, 51.740873]
        ]
      },
      "properties": {
        "elevation": 195,
        "slope": -18,
        "speed": 4,
        "distance": 37.5,
        "cumulativeDistance": 9965.4
      }
    },
    {
      "type": "Feature",
      "geometry": {
        "type": "LineString",
        "coordinates": [
          [-0.797122, 51.740873],
          [-0.795267, 51.740888]
        ]
      },
      "properties": {
        "elevation": 194.5,
        "slope": 1,
        "speed": 4,
        "distance": 128,
        "cumulativeDistance": 10093.4
      }
    },
    {
      "type": "Feature",
      "geometry": {
        "type": "LineString",
        "coordinates": [
          [-0.795267, 51.740888],
          [-0.793231, 51.741487]
        ]
      },
      "properties": {
        "elevation": 202.5,
        "slope": 5,
        "speed": 4,
        "distance": 163.2,
        "cumulativeDistance": 10256.6
      }
    },
    {
      "type": "Feature",
      "geometry": {
        "type": "LineString",
        "coordinates": [
          [-0.793231, 51.741487],
          [-0.790919, 51.741327]
        ]
      },
      "properties": {
        "elevation": 207,
        "slope": -2,
        "speed": 4,
        "distance": 161.5,
        "cumulativeDistance": 10418.1
      }
    },
    {
      "type": "Feature",
      "geometry": {
        "type": "LineString",
        "coordinates": [
          [-0.790919, 51.741327],
          [-0.789562, 51.740563]
        ]
      },
      "properties": {
        "elevation": 205.5,
        "slope": 0,
        "speed": 4,
        "distance": 126.3,
        "cumulativeDistance": 10544.3
      }
    },
    {
      "type": "Feature",
      "geometry": {
        "type": "LineString",
        "coordinates": [
          [-0.789562, 51.740563],
          [-0.789307, 51.740286]
        ]
      },
      "properties": {
        "elevation": 206,
        "slope": 0,
        "speed": 4,
        "distance": 35.5,
        "cumulativeDistance": 10579.8
      }
    },
    {
      "type": "Feature",
      "geometry": {
        "type": "LineString",
        "coordinates": [
          [-0.789307, 51.740286],
          [-0.788389, 51.739678]
        ]
      },
      "properties": {
        "elevation": 206.5,
        "slope": 0,
        "speed": 4,
        "distance": 92.6,
        "cumulativeDistance": 10672.4
      }
    },
    {
      "type": "Feature",
      "geometry": {
        "type": "LineString",
        "coordinates": [
          [-0.788389, 51.739678],
          [-0.785375, 51.738296]
        ]
      },
      "properties": {
        "elevation": 204.5,
        "slope": -2,
        "speed": 4,
        "distance": 260.3,
        "cumulativeDistance": 10932.6
      }
    },
    {
      "type": "Feature",
      "geometry": {
        "type": "LineString",
        "coordinates": [
          [-0.785375, 51.738296],
          [-0.785415, 51.737848]
        ]
      },
      "properties": {
        "elevation": 200,
        "slope": -8,
        "speed": 4,
        "distance": 56.9,
        "cumulativeDistance": 10989.6
      }
    },
    {
      "type": "Feature",
      "geometry": {
        "type": "LineString",
        "coordinates": [
          [-0.785415, 51.737848],
          [-0.781282, 51.736978]
        ]
      },
      "properties": {
        "elevation": 190.5,
        "slope": -4,
        "speed": 4,
        "distance": 310.3,
        "cumulativeDistance": 11299.9
      }
    },
    {
      "type": "Feature",
      "geometry": {
        "type": "LineString",
        "coordinates": [
          [-0.781282, 51.736978],
          [-0.777808, 51.737247]
        ]
      },
      "properties": {
        "elevation": 181.5,
        "slope": -1,
        "speed": 4,
        "distance": 241.6,
        "cumulativeDistance": 11541.5
      }
    },
    {
      "type": "Feature",
      "geometry": {
        "type": "LineString",
        "coordinates": [
          [-0.777808, 51.737247],
          [-0.776337, 51.737018]
        ]
      },
      "properties": {
        "elevation": 183,
        "slope": 3,
        "speed": 4,
        "distance": 106.3,
        "cumulativeDistance": 11647.8
      }
    },
    {
      "type": "Feature",
      "geometry": {
        "type": "LineString",
        "coordinates": [
          [-0.776337, 51.737018],
          [-0.775122, 51.737218]
        ]
      },
      "properties": {
        "elevation": 188.5,
        "slope": 3,
        "speed": 4,
        "distance": 88.1,
        "cumulativeDistance": 11735.9
      }
    },
    {
      "type": "Feature",
      "geometry": {
        "type": "LineString",
        "coordinates": [
          [-0.775122, 51.737218],
          [-0.772616, 51.737357]
        ]
      },
      "properties": {
        "elevation": 201.5,
        "slope": 7,
        "speed": 4,
        "distance": 191.5,
        "cumulativeDistance": 11927.4
      }
    },
    {
      "type": "Feature",
      "geometry": {
        "type": "LineString",
        "coordinates": [
          [-0.772616, 51.737357],
          [-0.770942, 51.737837]
        ]
      },
      "properties": {
        "elevation": 221.5,
        "slope": 9,
        "speed": 4,
        "distance": 150.4,
        "cumulativeDistance": 12077.9
      }
    },
    {
      "type": "Feature",
      "geometry": {
        "type": "LineString",
        "coordinates": [
          [-0.770942, 51.737837],
          [-0.769759, 51.738356]
        ]
      },
      "properties": {
        "elevation": 233.5,
        "slope": 3,
        "speed": 4,
        "distance": 101.6,
        "cumulativeDistance": 12179.5
      }
    },
    {
      "type": "Feature",
      "geometry": {
        "type": "LineString",
        "coordinates": [
          [-0.769759, 51.738356],
          [-0.768839, 51.738106]
        ]
      },
      "properties": {
        "elevation": 237.5,
        "slope": 2,
        "speed": 4,
        "distance": 69.7,
        "cumulativeDistance": 12249.2
      }
    },
    {
      "type": "Feature",
      "geometry": {
        "type": "LineString",
        "coordinates": [
          [-0.768839, 51.738106],
          [-0.767329, 51.737906]
        ]
      },
      "properties": {
        "elevation": 236.5,
        "slope": -3,
        "speed": 4,
        "distance": 108.2,
        "cumulativeDistance": 12357.5
      }
    },
    {
      "type": "Feature",
      "geometry": {
        "type": "LineString",
        "coordinates": [
          [-0.767329, 51.737906],
          [-0.765667, 51.737858]
        ]
      },
      "properties": {
        "elevation": 229.5,
        "slope": -5,
        "speed": 4,
        "distance": 120.5,
        "cumulativeDistance": 12477.9
      }
    },
    {
      "type": "Feature",
      "geometry": {
        "type": "LineString",
        "coordinates": [
          [-0.765667, 51.737858],
          [-0.765367, 51.737978]
        ]
      },
      "properties": {
        "elevation": 225,
        "slope": 0,
        "speed": 4,
        "distance": 24.6,
        "cumulativeDistance": 12502.5
      }
    },
    {
      "type": "Feature",
      "geometry": {
        "type": "LineString",
        "coordinates": [
          [-0.765367, 51.737978],
          [-0.759959, 51.737657]
        ]
      },
      "properties": {
        "elevation": 215,
        "slope": -4,
        "speed": 4,
        "distance": 386.2,
        "cumulativeDistance": 12888.7
      }
    },
    {
      "type": "Feature",
      "geometry": {
        "type": "LineString",
        "coordinates": [
          [-0.759959, 51.737657],
          [-0.757445, 51.737187]
        ]
      },
      "properties": {
        "elevation": 200,
        "slope": -4,
        "speed": 4,
        "distance": 186.7,
        "cumulativeDistance": 13075.4
      }
    },
    {
      "type": "Feature",
      "geometry": {
        "type": "LineString",
        "coordinates": [
          [-0.757445, 51.737187],
          [-0.75616, 51.737428]
        ]
      },
      "properties": {
        "elevation": 195,
        "slope": 0,
        "speed": 4,
        "distance": 92.5,
        "cumulativeDistance": 13167.9
      }
    },
    {
      "type": "Feature",
      "geometry": {
        "type": "LineString",
        "coordinates": [
          [-0.75616, 51.737428],
          [-0.753955, 51.739146]
        ]
      },
      "properties": {
        "elevation": 212,
        "slope": 10,
        "speed": 4,
        "distance": 301.6,
        "cumulativeDistance": 13469.5
      }
    },
    {
      "type": "Feature",
      "geometry": {
        "type": "LineString",
        "coordinates": [
          [-0.753955, 51.739146],
          [-0.753684, 51.739208]
        ]
      },
      "properties": {
        "elevation": 229,
        "slope": 0,
        "speed": 4,
        "distance": 19.9,
        "cumulativeDistance": 13489.4
      }
    },
    {
      "type": "Feature",
      "geometry": {
        "type": "LineString",
        "coordinates": [
          [-0.753684, 51.739208],
          [-0.752698, 51.739046]
        ]
      },
      "properties": {
        "elevation": 228.5,
        "slope": -1,
        "speed": 4,
        "distance": 70.4,
        "cumulativeDistance": 13559.8
      }
    },
    {
      "type": "Feature",
      "geometry": {
        "type": "LineString",
        "coordinates": [
          [-0.752698, 51.739046],
          [-0.752539, 51.739488]
        ]
      },
      "properties": {
        "elevation": 228,
        "slope": 0,
        "speed": 4,
        "distance": 50.4,
        "cumulativeDistance": 13610.1
      }
    },
    {
      "type": "Feature",
      "geometry": {
        "type": "LineString",
        "coordinates": [
          [-0.752539, 51.739488],
          [-0.752562, 51.739733]
        ]
      },
      "properties": {
        "elevation": 228,
        "slope": 0,
        "speed": 4,
        "distance": 27.3,
        "cumulativeDistance": 13637.4
      }
    },
    {
      "type": "Feature",
      "geometry": {
        "type": "LineString",
        "coordinates": [
          [-0.752562, 51.739733],
          [-0.752737, 51.739938]
        ]
      },
      "properties": {
        "elevation": 228,
        "slope": 0,
        "speed": 4,
        "distance": 25.8,
        "cumulativeDistance": 13663.2
      }
    },
    {
      "type": "Feature",
      "geometry": {
        "type": "LineString",
        "coordinates": [
          [-0.752737, 51.739938],
          [-0.753346, 51.740197]
        ]
      },
      "properties": {
        "elevation": 228.5,
        "slope": 1,
        "speed": 4,
        "distance": 51,
        "cumulativeDistance": 13714.2
      }
    },
    {
      "type": "Feature",
      "geometry": {
        "type": "LineString",
        "coordinates": [
          [-0.753346, 51.740197],
          [-0.753495, 51.740597]
        ]
      },
      "properties": {
        "elevation": 229,
        "slope": 0,
        "speed": 4,
        "distance": 45.6,
        "cumulativeDistance": 13759.8
      }
    },
    {
      "type": "Feature",
      "geometry": {
        "type": "LineString",
        "coordinates": [
          [-0.753495, 51.740597],
          [-0.753789, 51.740826]
        ]
      },
      "properties": {
        "elevation": 229.5,
        "slope": 2,
        "speed": 4,
        "distance": 32.8,
        "cumulativeDistance": 13792.6
      }
    },
    {
      "type": "Feature",
      "geometry": {
        "type": "LineString",
        "coordinates": [
          [-0.753789, 51.740826],
          [-0.753872, 51.741353]
        ]
      },
      "properties": {
        "elevation": 230.5,
        "slope": 1,
        "speed": 4,
        "distance": 59,
        "cumulativeDistance": 13851.6
      }
    },
    {
      "type": "Feature",
      "geometry": {
        "type": "LineString",
        "coordinates": [
          [-0.753872, 51.741353],
          [-0.754086, 51.741837]
        ]
      },
      "properties": {
        "elevation": 231,
        "slope": 0,
        "speed": 4,
        "distance": 55.8,
        "cumulativeDistance": 13907.4
      }
    },
    {
      "type": "Feature",
      "geometry": {
        "type": "LineString",
        "coordinates": [
          [-0.754086, 51.741837],
          [-0.754065, 51.742068]
        ]
      },
      "properties": {
        "elevation": 231,
        "slope": 0,
        "speed": 4,
        "distance": 25.7,
        "cumulativeDistance": 13933.1
      }
    },
    {
      "type": "Feature",
      "geometry": {
        "type": "LineString",
        "coordinates": [
          [-0.754065, 51.742068],
          [-0.754515, 51.742746]
        ]
      },
      "properties": {
        "elevation": 231.5,
        "slope": 1,
        "speed": 4,
        "distance": 81.7,
        "cumulativeDistance": 14014.8
      }
    },
    {
      "type": "Feature",
      "geometry": {
        "type": "LineString",
        "coordinates": [
          [-0.754515, 51.742746],
          [-0.754898, 51.743126]
        ]
      },
      "properties": {
        "elevation": 232,
        "slope": 0,
        "speed": 4,
        "distance": 49.8,
        "cumulativeDistance": 14064.6
      }
    },
    {
      "type": "Feature",
      "geometry": {
        "type": "LineString",
        "coordinates": [
          [-0.754898, 51.743126],
          [-0.755857, 51.743608]
        ]
      },
      "properties": {
        "elevation": 232,
        "slope": 0,
        "speed": 4,
        "distance": 85,
        "cumulativeDistance": 14149.7
      }
    },
    {
      "type": "Feature",
      "geometry": {
        "type": "LineString",
        "coordinates": [
          [-0.755857, 51.743608],
          [-0.756032, 51.743833]
        ]
      },
      "properties": {
        "elevation": 232,
        "slope": 0,
        "speed": 4,
        "distance": 27.8,
        "cumulativeDistance": 14177.4
      }
    },
    {
      "type": "Feature",
      "geometry": {
        "type": "LineString",
        "coordinates": [
          [-0.756032, 51.743833],
          [-0.757659, 51.745028]
        ]
      },
      "properties": {
        "elevation": 233.5,
        "slope": 1,
        "speed": 4,
        "distance": 174.1,
        "cumulativeDistance": 14351.6
      }
    },
    {
      "type": "Feature",
      "geometry": {
        "type": "LineString",
        "coordinates": [
          [-0.757659, 51.745028],
          [-0.758095, 51.745576]
        ]
      },
      "properties": {
        "elevation": 235,
        "slope": 0,
        "speed": 4,
        "distance": 67.9,
        "cumulativeDistance": 14419.5
      }
    },
    {
      "type": "Feature",
      "geometry": {
        "type": "LineString",
        "coordinates": [
          [-0.758095, 51.745576],
          [-0.758752, 51.746113]
        ]
      },
      "properties": {
        "elevation": 236.5,
        "slope": 3,
        "speed": 4,
        "distance": 76.3,
        "cumulativeDistance": 14495.8
      }
    },
    {
      "type": "Feature",
      "geometry": {
        "type": "LineString",
        "coordinates": [
          [-0.758752, 51.746113],
          [-0.759501, 51.746457]
        ]
      },
      "properties": {
        "elevation": 238.5,
        "slope": 1,
        "speed": 4,
        "distance": 64.3,
        "cumulativeDistance": 14560.1
      }
    },
    {
      "type": "Feature",
      "geometry": {
        "type": "LineString",
        "coordinates": [
          [-0.759501, 51.746457],
          [-0.760852, 51.747448]
        ]
      },
      "properties": {
        "elevation": 240.5,
        "slope": 1,
        "speed": 4,
        "distance": 144.5,
        "cumulativeDistance": 14704.6
      }
    },
    {
      "type": "Feature",
      "geometry": {
        "type": "LineString",
        "coordinates": [
          [-0.760852, 51.747448],
          [-0.762062, 51.747098]
        ]
      },
      "properties": {
        "elevation": 240,
        "slope": -3,
        "speed": 4,
        "distance": 93.6,
        "cumulativeDistance": 14798.2
      }
    },
    {
      "type": "Feature",
      "geometry": {
        "type": "LineString",
        "coordinates": [
          [-0.762062, 51.747098],
          [-0.763268, 51.746966]
        ]
      },
      "properties": {
        "elevation": 238,
        "slope": 0,
        "speed": 4,
        "distance": 84.3,
        "cumulativeDistance": 14882.5
      }
    },
    {
      "type": "Feature",
      "geometry": {
        "type": "LineString",
        "coordinates": [
          [-0.763268, 51.746966],
          [-0.765027, 51.748028]
        ]
      },
      "properties": {
        "elevation": 240,
        "slope": 1,
        "speed": 4,
        "distance": 169.5,
        "cumulativeDistance": 15052
      }
    },
    {
      "type": "Feature",
      "geometry": {
        "type": "LineString",
        "coordinates": [
          [-0.765027, 51.748028],
          [-0.765645, 51.748757]
        ]
      },
      "properties": {
        "elevation": 243.5,
        "slope": 2,
        "speed": 4,
        "distance": 92.3,
        "cumulativeDistance": 15144.2
      }
    },
    {
      "type": "Feature",
      "geometry": {
        "type": "LineString",
        "coordinates": [
          [-0.765645, 51.748757],
          [-0.765828, 51.749217]
        ]
      },
      "properties": {
        "elevation": 246,
        "slope": 3,
        "speed": 4,
        "distance": 53.6,
        "cumulativeDistance": 15197.9
      }
    },
    {
      "type": "Feature",
      "geometry": {
        "type": "LineString",
        "coordinates": [
          [-0.765828, 51.749217],
          [-0.765836, 51.750047]
        ]
      },
      "properties": {
        "elevation": 248,
        "slope": 2,
        "speed": 4,
        "distance": 93,
        "cumulativeDistance": 15290.9
      }
    },
    {
      "type": "Feature",
      "geometry": {
        "type": "LineString",
        "coordinates": [
          [-0.765836, 51.750047],
          [-0.765755, 51.750258]
        ]
      },
      "properties": {
        "elevation": 249,
        "slope": 0,
        "speed": 4,
        "distance": 24.1,
        "cumulativeDistance": 15315
      }
    },
    {
      "type": "Feature",
      "geometry": {
        "type": "LineString",
        "coordinates": [
          [-0.765755, 51.750258],
          [-0.765901, 51.751467]
        ]
      },
      "properties": {
        "elevation": 250,
        "slope": 1,
        "speed": 4,
        "distance": 135.1,
        "cumulativeDistance": 15450.1
      }
    },
    {
      "type": "Feature",
      "geometry": {
        "type": "LineString",
        "coordinates": [
          [-0.765901, 51.751467],
          [-0.765895, 51.752517]
        ]
      },
      "properties": {
        "elevation": 251.5,
        "slope": 0,
        "speed": 4,
        "distance": 116.8,
        "cumulativeDistance": 15566.8
      }
    },
    {
      "type": "Feature",
      "geometry": {
        "type": "LineString",
        "coordinates": [
          [-0.765895, 51.752517],
          [-0.766087, 51.752726]
        ]
      },
      "properties": {
        "elevation": 252.5,
        "slope": 3,
        "speed": 4,
        "distance": 27.2,
        "cumulativeDistance": 15594.1
      }
    },
    {
      "type": "Feature",
      "geometry": {
        "type": "LineString",
        "coordinates": [
          [-0.766087, 51.752726],
          [-0.768223, 51.753157]
        ]
      },
      "properties": {
        "elevation": 254,
        "slope": 0,
        "speed": 4,
        "distance": 154.6,
        "cumulativeDistance": 15748.7
      }
    },
    {
      "type": "Feature",
      "geometry": {
        "type": "LineString",
        "coordinates": [
          [-0.768223, 51.753157],
          [-0.769794, 51.753138]
        ]
      },
      "properties": {
        "elevation": 254.5,
        "slope": -1,
        "speed": 4,
        "distance": 108.4,
        "cumulativeDistance": 15857.1
      }
    },
    {
      "type": "Feature",
      "geometry": {
        "type": "LineString",
        "coordinates": [
          [-0.769794, 51.753138],
          [-0.770082, 51.752953]
        ]
      },
      "properties": {
        "elevation": 256,
        "slope": 10,
        "speed": 4,
        "distance": 35.3,
        "cumulativeDistance": 15892.4
      }
    },
    {
      "type": "Feature",
      "geometry": {
        "type": "LineString",
        "coordinates": [
          [-0.770082, 51.752953],
          [-0.770635, 51.752796]
        ]
      },
      "properties": {
        "elevation": 258,
        "slope": 0,
        "speed": 4,
        "distance": 41.9,
        "cumulativeDistance": 15934.3
      }
    },
    {
      "type": "Feature",
      "geometry": {
        "type": "LineString",
        "coordinates": [
          [-0.770635, 51.752796],
          [-0.771675, 51.753068]
        ]
      },
      "properties": {
        "elevation": 256.5,
        "slope": -3,
        "speed": 4,
        "distance": 79.1,
        "cumulativeDistance": 16013.4
      }
    },
    {
      "type": "Feature",
      "geometry": {
        "type": "LineString",
        "coordinates": [
          [-0.771675, 51.753068],
          [-0.768759, 51.753558]
        ]
      },
      "properties": {
        "elevation": 251,
        "slope": -3,
        "speed": 4,
        "distance": 211.7,
        "cumulativeDistance": 16225.1
      }
    },
    {
      "type": "Feature",
      "geometry": {
        "type": "LineString",
        "coordinates": [
          [-0.768759, 51.753558],
          [-0.766005, 51.753837]
        ]
      },
      "properties": {
        "elevation": 247.5,
        "slope": 0,
        "speed": 4,
        "distance": 192.1,
        "cumulativeDistance": 16417.2
      }
    },
    {
      "type": "Feature",
      "geometry": {
        "type": "LineString",
        "coordinates": [
          [-0.766005, 51.753837],
          [-0.761996, 51.754557]
        ]
      },
      "properties": {
        "elevation": 240.5,
        "slope": -4,
        "speed": 4,
        "distance": 296.7,
        "cumulativeDistance": 16713.9
      }
    },
    {
      "type": "Feature",
      "geometry": {
        "type": "LineString",
        "coordinates": [
          [-0.761996, 51.754557],
          [-0.760906, 51.755016]
        ]
      },
      "properties": {
        "elevation": 231,
        "slope": -4,
        "speed": 4,
        "distance": 93.7,
        "cumulativeDistance": 16807.6
      }
    },
    {
      "type": "Feature",
      "geometry": {
        "type": "LineString",
        "coordinates": [
          [-0.760906, 51.755016],
          [-0.758198, 51.755656]
        ]
      },
      "properties": {
        "elevation": 227,
        "slope": -2,
        "speed": 4,
        "distance": 201.1,
        "cumulativeDistance": 17008.7
      }
    },
    {
      "type": "Feature",
      "geometry": {
        "type": "LineString",
        "coordinates": [
          [-0.758198, 51.755656],
          [-0.757322, 51.756058]
        ]
      },
      "properties": {
        "elevation": 223,
        "slope": -4,
        "speed": 4,
        "distance": 77.5,
        "cumulativeDistance": 17086.2
      }
    },
    {
      "type": "Feature",
      "geometry": {
        "type": "LineString",
        "coordinates": [
          [-0.757322, 51.756058],
          [-0.756659, 51.756536]
        ]
      },
      "properties": {
        "elevation": 218,
        "slope": -7,
        "speed": 4,
        "distance": 77.4,
        "cumulativeDistance": 17163.6
      }
    },
    {
      "type": "Feature",
      "geometry": {
        "type": "LineString",
        "coordinates": [
          [-0.756659, 51.756536],
          [-0.756107, 51.756748]
        ]
      },
      "properties": {
        "elevation": 209,
        "slope": -19,
        "speed": 4,
        "distance": 121.5,
        "cumulativeDistance": 17285
      }
    },
    {
      "type": "Feature",
      "geometry": {
        "type": "LineString",
        "coordinates": [
          [-0.756107, 51.756748],
          [-0.754337, 51.756907]
        ]
      },
      "properties": {
        "elevation": 202,
        "slope": -2,
        "speed": 4,
        "distance": 124.1,
        "cumulativeDistance": 17409.1
      }
    },
    {
      "type": "Feature",
      "geometry": {
        "type": "LineString",
        "coordinates": [
          [-0.754337, 51.756907],
          [-0.753825, 51.757088]
        ]
      },
      "properties": {
        "elevation": 197,
        "slope": -14,
        "speed": 4,
        "distance": 63.7,
        "cumulativeDistance": 17472.8
      }
    },
    {
      "type": "Feature",
      "geometry": {
        "type": "LineString",
        "coordinates": [
          [-0.753825, 51.757088],
          [-0.751199, 51.758278]
        ]
      },
      "properties": {
        "elevation": 185,
        "slope": -5,
        "speed": 4,
        "distance": 235.5,
        "cumulativeDistance": 17708.3
      }
    },
    {
      "type": "Feature",
      "geometry": {
        "type": "LineString",
        "coordinates": [
          [-0.751199, 51.758278],
          [-0.750255, 51.758766]
        ]
      },
      "properties": {
        "elevation": 170.5,
        "slope": -12,
        "speed": 4,
        "distance": 116.1,
        "cumulativeDistance": 17824.4
      }
    },
    {
      "type": "Feature",
      "geometry": {
        "type": "LineString",
        "coordinates": [
          [-0.750255, 51.758766],
          [-0.749766, 51.759157]
        ]
      },
      "properties": {
        "elevation": 163,
        "slope": -3,
        "speed": 4,
        "distance": 56,
        "cumulativeDistance": 17880.4
      }
    },
    {
      "type": "Feature",
      "geometry": {
        "type": "LineString",
        "coordinates": [
          [-0.749766, 51.759157],
          [-0.747932, 51.759828]
        ]
      },
      "properties": {
        "elevation": 156,
        "slope": -6,
        "speed": 4,
        "distance": 157.7,
        "cumulativeDistance": 18038.1
      }
    },
    {
      "type": "Feature",
      "geometry": {
        "type": "LineString",
        "coordinates": [
          [-0.747932, 51.759828],
          [-0.746312, 51.760597]
        ]
      },
      "properties": {
        "elevation": 141,
        "slope": -10,
        "speed": 4,
        "distance": 173.7,
        "cumulativeDistance": 18211.8
      }
    },
    {
      "type": "Feature",
      "geometry": {
        "type": "LineString",
        "coordinates": [
          [-0.746312, 51.760597],
          [-0.745894, 51.760988]
        ]
      },
      "properties": {
        "elevation": 134,
        "slope": 6,
        "speed": 4,
        "distance": 56.1,
        "cumulativeDistance": 18267.9
      }
    },
    {
      "type": "Feature",
      "geometry": {
        "type": "LineString",
        "coordinates": [
          [-0.745894, 51.760988],
          [-0.747262, 51.761808]
        ]
      },
      "properties": {
        "elevation": 133.5,
        "slope": -3,
        "speed": 4,
        "distance": 133.4,
        "cumulativeDistance": 18401.3
      }
    },
    {
      "type": "Feature",
      "geometry": {
        "type": "LineString",
        "coordinates": [
          [-0.747262, 51.761808],
          [-0.747489, 51.761706]
        ]
      },
      "properties": {
        "elevation": 131,
        "slope": 0,
        "speed": 4,
        "distance": 19.3,
        "cumulativeDistance": 18420.6
      }
    }
  ]
}
